# -*- encoding: utf-8 -*-
=begin
=図鑑_人物データ設定セクション by nwapeg

図鑑の人物の項に表示する内容を設定します。
解説のスクロールを実装した際に、制御文字の描画が不可能になりました。

==更新履歴
Date     Version Author Comment
14/11/30 0.3.0   トリス CG閲覧を追加
13/07/20 0.2.1   Foo    画像の拡縮率を可能に
13/07/20 0.2.0   Foo    画像にX,Y調整値指定可能に
                        解説から固有アビリティに変更
12/06/09 0.1.1   nwapeg 画像指定追加
12/06/08 0.1.0   nwapeg 試作

=end

#==============================================================================
# ■ NWConst::Library
#==============================================================================
module NWConst::Library
  # 回想・ＣＧ閲覧用背景（ピクチャフォルダ参照）
  ACTOR_DEFAULT_MEMORY_BG_IMAGE = "bg195"
  
  # 回想・ＣＧ閲覧用背景
  # :bb1 => 戦闘背景１から背景を選択します
  # :bb2 => 戦闘背景２から背景を選択します
  # :pic => ピクチャフォルダから背景を選択します
  ACTOR_MEMORY_BG_IMAGE = {
  }
  
  # ＣＧ閲覧用の画像設定
  # パス,ファイル名,色相,X調整値,Y調整値,拡縮率で記述します。
  # X座標の基準点は中央,Y座標の基準点は最下部です。
  # 色相以降の設定値は省略可能です。(デフォルト値:色相=0,X調整値=0,Y調整値=0,拡縮率=1.00)
  ACTOR_CG_VIEW_IMAGE = {
    5 => { # アリス
        :regist => {
          1 => ["Graphics/Pictures/", "ev_alice_H10_1"],
          2 => ["Graphics/Pictures/", "ev_alice_H10_2"],
          3 => ["Graphics/Pictures/", "ev_alice_H10_3"],
          4 => ["Graphics/Pictures/", "ev_alice_H10_4"],
          5 => ["Graphics/Pictures/", "ev_alice_H10_5"],
          6 => ["Graphics/Pictures/", "ev_alice_H10_6"],
          7 => ["Graphics/Pictures/", "ev_alice_H10_7"],
          8 => ["Graphics/Pictures/", "ev_alice_H10_8"],
          9 => ["Graphics/Pictures/", "ev_alice_H10_9"],
          10 => ["Graphics/Pictures/", "ev_alice_H14_1"],
          11 => ["Graphics/Pictures/", "ev_alice_H14_2"],
          12 => ["Graphics/Pictures/", "ev_alice_H14_3"],
          13 => ["Graphics/Pictures/", "ev_alice_H14_4"],
          14 => ["Graphics/Pictures/", "ev_alice_H14_5"],
          15 => ["Graphics/Pictures/", "ev_alice_H14_6"],
          16 => ["Graphics/Pictures/", "ev_alice_H14_7"],
        },
        # 表示パターンの指定
        :draw => [
          [1],
          [2],
          [3],
          [4],
          [5],
          [6],
          [7],
          [8],
          [9],
          [10],
          [11],
          [12],
          [13],
          [14],
          [15],
          [16],
        ],
      },
    12 => { # シルフ
        :regist => {
          1 => ["Graphics/Pictures/", "ev_sylph_hb1"],
          2 => ["Graphics/Pictures/", "ev_sylph_hb2"],
          3 => ["Graphics/Pictures/", "ev_sylph_hb3"],
          4 => ["Graphics/Pictures/", "ev_sylph_hb4"],
        },
        # 表示パターンの指定
        :draw => [
          [1],
          [2],
          [3],
          [4],
        ],
      },
    13 => { # ノーム
        :regist => {
          1 => ["Graphics/Pictures/", "ev_gnome_hb1"],
          2 => ["Graphics/Pictures/", "ev_gnome_hb2"],
          3 => ["Graphics/Pictures/", "ev_gnome_hb3"],
          4 => ["Graphics/Pictures/", "ev_gnome_hb4"],
        },
        # 表示パターンの指定
        :draw => [
          [1],
          [2],
          [3],
          [4],
        ],
      },
    26 => { # イリアス
        :regist => {
          1 => ["Graphics/Pictures/", "ev_iriasu_hc1"],
          2 => ["Graphics/Pictures/", "ev_iriasu_hc2"],
          3 => ["Graphics/Pictures/", "ev_iriasu_hc3"],
          4 => ["Graphics/Pictures/", "ev_iriasu_hc4"],
        },
        # 表示パターンの指定
        :draw => [
          [1],
          [2],
          [3],
          [4],
        ],
      },
    41 => { # プロメスティン
        :regist => {
          1 => ["Graphics/Pictures/", "ev_stein_hsb1"],
          2 => ["Graphics/Pictures/", "ev_stein_hsb2"],
          3 => ["Graphics/Pictures/", "ev_stein_hsb3"],
          4 => ["Graphics/Pictures/", "ev_stein_hsb4"],
          5 => ["Graphics/Pictures/", "ev_stein_hsc1"],
          6 => ["Graphics/Pictures/", "ev_stein_hsc2"],
          7 => ["Graphics/Pictures/", "ev_stein_hsc3"],
          8 => ["Graphics/Pictures/", "ev_stein_hsc4"],
          9 => ["Graphics/Pictures/", "ev_stein_hsd1"],
          10 => ["Graphics/Pictures/", "ev_stein_hsd2"],
          11 => ["Graphics/Pictures/", "ev_stein_hsd3"],
          12 => ["Graphics/Pictures/", "ev_stein_hsd4"],
          13 => ["Graphics/Pictures/", "ev_stein_hse1"],
          14 => ["Graphics/Pictures/", "ev_stein_hse2"],
          15 => ["Graphics/Pictures/", "ev_stein_hse3"],
          16 => ["Graphics/Pictures/", "ev_stein_hse4"],
          17 => ["Graphics/Pictures/", "ev_stein_hsa1"],
          18 => ["Graphics/Pictures/", "ev_stein_hsa2"],
          19 => ["Graphics/Pictures/", "ev_stein_hsa3"],
          20 => ["Graphics/Pictures/", "ev_stein_hsa4"],
          21 => ["Graphics/Pictures/", "ev_stein_hsa5"],
        },
        # 表示パターンの指定
        :draw => [
          [1],
          [2],
          [3],
          [4],
          [5],
          [6],
          [7],
          [8],
          [9],
          [10],
          [11],
          [12],
          [13],
          [14],
          [15],
          [16],
          [17],
          [18],
          [19],
          [20],
          [21],
        ],
      },
    53 => { # スライム娘
        :regist => {
          1 => ["Graphics/Pictures/", "ev_slime_hb1"],
          2 => ["Graphics/Pictures/", "ev_slime_hb2"],
          3 => ["Graphics/Pictures/", "ev_slime_hb3"],
          4 => ["Graphics/Pictures/", "ev_slime_hb4"],
        },
        # 表示パターンの指定
        :draw => [
          [1],
          [2],
          [3],
          [4],
        ],
      },
    55 => { # ナメクジ娘
        :regist => {
          1 => ["Graphics/Pictures/", "ev_name_hb01"],
          2 => ["Graphics/Pictures/", "ev_name_hb02"],
          3 => ["Graphics/Pictures/", "ev_name_hb03"],
          4 => ["Graphics/Pictures/", "ev_name_hb04"],
          5 => ["Graphics/Pictures/", "ev_name_hb05"],
          6 => ["Graphics/Pictures/", "ev_name_hb06"],
          7 => ["Graphics/Pictures/", "ev_name_hb07"],
          8 => ["Graphics/Pictures/", "ev_name_hb08"],
          9 => ["Graphics/Pictures/", "ev_name_hb09"],
          10 => ["Graphics/Pictures/", "ev_name_hb10"],
          11 => ["Graphics/Pictures/", "ev_name_hb11"],
          12 => ["Graphics/Pictures/", "ev_name_hb12"],
          13 => ["Graphics/Pictures/", "ev_name_hb13"],
        },
        # 表示パターンの指定
        :draw => [
          [1],
          [2],
          [3],
          [4],
          [5],
          [6],
          [7],
          [8],
          [9],
          [10],
          [11],
          [12],
          [13],
        ],
      },
    56 => { # インプ
        :regist => {
          1 => ["Graphics/Pictures/", "ev_inp_hd1"],
          2 => ["Graphics/Pictures/", "ev_inp_hd2"],
          3 => ["Graphics/Pictures/", "ev_inp_hd3"],
          4 => ["Graphics/Pictures/", "ev_inp_hd4"],
          5 => ["Graphics/Pictures/", "ev_inp_hd5"],
          6 => ["Graphics/Pictures/", "ev_inp_hd6"],
          7 => ["Graphics/Pictures/", "ev_inp_hd7"],
          8 => ["Graphics/Pictures/", "ev_inp_hd8"],
          9 => ["Graphics/Pictures/", "ev_inp_ha1"],
          10 => ["Graphics/Pictures/", "ev_inp_ha2"],
          11 => ["Graphics/Pictures/", "ev_inp_ha3"],
          12 => ["Graphics/Pictures/", "ev_inp_ha4"],
          13 => ["Graphics/Pictures/", "ev_inp_ha5"],
          14 => ["Graphics/Pictures/", "ev_inp_ha6"],
          15 => ["Graphics/Pictures/", "ev_inp_he1"],
          16 => ["Graphics/Pictures/", "ev_inp_he2"],
          17 => ["Graphics/Pictures/", "ev_inp_he3"],
          18 => ["Graphics/Pictures/", "ev_inp_he4"],
          19 => ["Graphics/Pictures/", "ev_inp_he5"],
          20 => ["Graphics/Pictures/", "ev_inp_hc1"],
          21 => ["Graphics/Pictures/", "ev_inp_hc2"],
          22 => ["Graphics/Pictures/", "ev_inp_hc3"],
          23 => ["Graphics/Pictures/", "ev_inp_hc4"],
          24 => ["Graphics/Pictures/", "ev_inp_hg1"],
          25 => ["Graphics/Pictures/", "ev_inp_hg2"],
          26 => ["Graphics/Pictures/", "ev_inp_hg3"],
          27 => ["Graphics/Pictures/", "ev_inp_hg4"],
        },
        # 表示パターンの指定
        :draw => [
          [1],
          [2],
          [3],
          [4],
          [5],
          [6],
          [7],
          [8],
          [9],
          [10],
          [11],
          [12],
          [13],
          [14],
          [15],
          [16],
          [17],
          [18],
          [19],
          [20],
          [21],
          [22],
          [23],
          [24],
          [25],
          [26],
          [27],
        ],
      },
    57 => { # インプ
        :regist => {
          1 => ["Graphics/Pictures/", "80_inp_st21"],
          2 => ["Graphics/Pictures/", "ev_inp_ct21"],
          3 => ["Graphics/Pictures/", "ev_inp_ct22"],
          4 => ["Graphics/Pictures/", "ev_inp_hf1"],
          5 => ["Graphics/Pictures/", "ev_inp_hf2"],
          6 => ["Graphics/Pictures/", "ev_inp_hf3"],
          7 => ["Graphics/Pictures/", "ev_inp_hf4"],
        },
        # 表示パターンの指定
        :draw => [
          [1, 2],
          [1, 3],
          [4],
          [5],
          [6],
          [7],
        ],
      },
    58 => { # インプ
        :regist => {
          1 => ["Graphics/Pictures/", "80_inp_st11"],
          2 => ["Graphics/Pictures/", "ev_inp_ct11"],
          3 => ["Graphics/Pictures/", "ev_inp_ct12"],
          4 => ["Graphics/Pictures/", "ev_inp_hf1"],
          5 => ["Graphics/Pictures/", "ev_inp_hf2"],
          6 => ["Graphics/Pictures/", "ev_inp_hf3"],
          7 => ["Graphics/Pictures/", "ev_inp_hf4"],
        },
        # 表示パターンの指定
        :draw => [
          [1, 2],
          [1, 3],
          [4],
          [5],
          [6],
          [7],
        ],
      },
    59 => { # マンドラゴラ娘
        :regist => {
          1 => ["Graphics/Pictures/", "80_mdg_st01"],
          2 => ["Graphics/Pictures/", "ev_mdg_ct11"],
          3 => ["Graphics/Pictures/", "ev_mdg_ct12"],
          4 => ["Graphics/Pictures/", "ev_mdg_ct13"],
        },
        # 表示パターンの指定
        :draw => [
          [1, 2],
          [1, 3],
          [1, 4],
        ],
      },
    66 => { # ヴァンパイアガール
        :regist => {
          1 => ["Graphics/Pictures/", "ev_vgirl_ct01"],
          2 => ["Graphics/Pictures/", "ev_vgirl_ct02"],
          3 => ["Graphics/Pictures/", "ev_vgirl_ct03"],
          4 => ["Graphics/Pictures/", "ev_vgirl_ct04"],
          5 => ["Graphics/Pictures/", "ev_vgirl_ct05"],
          6 => ["Graphics/Pictures/", "ev_vgirl_ct06"],
        },
        # 表示パターンの指定
        :draw => [
          [1],
          [2],
          [3],
          [4],
          [5],
          [6],
        ],
      },
    70 => { # ネズミ娘
        :regist => {
          1 => ["Graphics/Pictures/", "ev_nezumi_ha1"],
          2 => ["Graphics/Pictures/", "ev_nezumi_ha2"],
          3 => ["Graphics/Pictures/", "ev_nezumi_ha3"],
          4 => ["Graphics/Pictures/", "ev_nezumi_hb1"],
          5 => ["Graphics/Pictures/", "ev_nezumi_hb2"],
          6 => ["Graphics/Pictures/", "ev_nezumi_hb3"],
        },
        # 表示パターンの指定
        :draw => [
          [1],
          [2],
          [3],
          [4],
          [5],
          [6],
        ],
      },
    72 => { # フェニックス娘
        :regist => {
          1 => ["Graphics/Pictures/", "ev_phoenix_ha1"],
          2 => ["Graphics/Pictures/", "ev_phoenix_ha2"],
          3 => ["Graphics/Pictures/", "ev_phoenix_ha3"],
          4 => ["Graphics/Pictures/", "ev_phoenix_ha4"],
          5 => ["Graphics/Pictures/", "ev_phoenix_ha5"],
          6 => ["Graphics/Pictures/", "ev_phoenix_ha6"],
          7 => ["Graphics/Pictures/", "ev_phoenix_ha7"],
        },
        # 表示パターンの指定
        :draw => [
          [1],
          [2],
          [3],
          [4],
          [5],
          [6],
          [7],
        ],
      },
    74 => { # ウサギ娘
        :regist => {
          1 => ["Graphics/Pictures/", "ev_usagi_ha1"],
          2 => ["Graphics/Pictures/", "ev_usagi_ha2"],
          3 => ["Graphics/Pictures/", "ev_usagi_ha3"],
          4 => ["Graphics/Pictures/", "ev_usagi_ha4"],
          5 => ["Graphics/Pictures/", "ev_usagi_hc1"],
          6 => ["Graphics/Pictures/", "ev_usagi_hc2"],
          7 => ["Graphics/Pictures/", "ev_usagi_hc3"],
          8 => ["Graphics/Pictures/", "ev_usagi_hc4"],
          9 => ["Graphics/Pictures/", "ev_usagi_hc5"],
          10 => ["Graphics/Pictures/", "ev_usagi_hc6"],
          11 => ["Graphics/Pictures/", "ev_usagi_hc7"],
        },
        # 表示パターンの指定
        :draw => [
          [1],
          [2],
          [3],
          [4],
          [5],
          [6],
          [7],
          [8],
          [9],
          [10],
          [11],
        ],
      },
    76 => { # シュリー
        :regist => {
          1 => ["Graphics/Pictures/", "ev_syuree_hc01"],
          2 => ["Graphics/Pictures/", "ev_syuree_hc02"],
          3 => ["Graphics/Pictures/", "ev_syuree_hc03"],
          4 => ["Graphics/Pictures/", "ev_syuree_hc04"],
          5 => ["Graphics/Pictures/", "ev_syuree_hc05"],
          6 => ["Graphics/Pictures/", "ev_syuree_hc06"],
          7 => ["Graphics/Pictures/", "ev_syuree_hc07"],
          8 => ["Graphics/Pictures/", "ev_syuree_hc08"],
          9 => ["Graphics/Pictures/", "ev_syuree_hc09"],
          10 => ["Graphics/Pictures/", "ev_syuree_hc10"],
          11 => ["Graphics/Pictures/", "ev_syuree_hc11"],
          12 => ["Graphics/Pictures/", "ev_syuree_hc12"],
          13 => ["Graphics/Pictures/", "ev_syuree_hc13"],
          14 => ["Graphics/Pictures/", "ev_syuree_hc14"],
          15 => ["Graphics/Pictures/", "ev_syuree_hc15"],
          16 => ["Graphics/Pictures/", "ev_syuree_hc16"],
        },
        # 表示パターンの指定
        :draw => [
          [1],
          [2],
          [3],
          [4],
          [5],
          [6],
          [7],
          [8],
          [9],
          [10],
          [11],
          [12],
          [13],
          [14],
          [15],
          [16],
        ],
      },
    77 => { # ジェイド
        :regist => {
          1 => ["Graphics/Pictures/", "ev_jeid_hb01"],
          2 => ["Graphics/Pictures/", "ev_jeid_hb02"],
          3 => ["Graphics/Pictures/", "ev_jeid_hb03"],
          4 => ["Graphics/Pictures/", "ev_jeid_hb04"],
          5 => ["Graphics/Pictures/", "ev_jeid_hb05"],
          6 => ["Graphics/Pictures/", "ev_jeid_hb06"],
          7 => ["Graphics/Pictures/", "ev_jeid_hb07"],
          8 => ["Graphics/Pictures/", "ev_jeid_hb08"],
          9 => ["Graphics/Pictures/", "ev_jeid_hb09"],
          10 => ["Graphics/Pictures/", "ev_jeid_hb10"],
          11 => ["Graphics/Pictures/", "ev_jeid_hb11"],
          12 => ["Graphics/Pictures/", "ev_jeid_hb12"],
          13 => ["Graphics/Pictures/", "ev_jeid_hb13"],
          14 => ["Graphics/Pictures/", "ev_jeid_hb14"],
          15 => ["Graphics/Pictures/", "ev_jeid_hb15"],
          16 => ["Graphics/Pictures/", "ev_jeid_hb16"],
          17 => ["Graphics/Pictures/", "ev_jeid_hb17"],
        },
        # 表示パターンの指定
        :draw => [
          [1],
          [2],
          [3],
          [4],
          [5],
          [6],
          [7],
          [8],
          [9],
          [10],
          [11],
          [12],
          [13],
          [14],
          [15],
          [16],
          [17],
        ],
      },
    79 => { # ヌルコ
        :regist => {
          1 => ["Graphics/Pictures/", "ev_nuruko_hb1"],
          2 => ["Graphics/Pictures/", "ev_nuruko_hb2"],
          3 => ["Graphics/Pictures/", "ev_nuruko_hb3"],
          4 => ["Graphics/Pictures/", "ev_nuruko_hb4"],
        },
        # 表示パターンの指定
        :draw => [
          [1],
          [2],
          [3],
          [4],
        ],
      },
    85 => { # ハイスラッグ娘
        :regist => {
          1 => ["Graphics/Pictures/", "ev_highslag_ha1"],
          2 => ["Graphics/Pictures/", "ev_highslag_ha2"],
          3 => ["Graphics/Pictures/", "ev_highslag_ha3"],
          4 => ["Graphics/Pictures/", "ev_highslag_hc05"],
          5 => ["Graphics/Pictures/", "ev_highslag_hc06"],
          6 => ["Graphics/Pictures/", "ev_highslag_hc07"],
          7 => ["Graphics/Pictures/", "ev_highslag_hc08"],
          8 => ["Graphics/Pictures/", "ev_highslag_hc09"],
          9 => ["Graphics/Pictures/", "ev_highslag_hc10"],
          10 => ["Graphics/Pictures/", "ev_highslag_hc11"],
          11 => ["Graphics/Pictures/", "ev_highslag_hc12"],
          12 => ["Graphics/Pictures/", "ev_highslag_hc13"],
          13 => ["Graphics/Pictures/", "ev_highslag_hc14"],
          14 => ["Graphics/Pictures/", "ev_highslag_hc15"],
          15 => ["Graphics/Pictures/", "ev_highslag_hc16"],
          16 => ["Graphics/Pictures/", "ev_highslag_hc17"],
          17 => ["Graphics/Pictures/", "ev_highslag_hc18"],
          18 => ["Graphics/Pictures/", "ev_highslag_hc19"],
          19 => ["Graphics/Pictures/", "ev_highslag_hc20"],
          20 => ["Graphics/Pictures/", "ev_highslag_hc21"],
          21 => ["Graphics/Pictures/", "ev_highslag_hc22"],
          22 => ["Graphics/Pictures/", "ev_highslag_hc23"],
          23 => ["Graphics/Pictures/", "ev_highslag_hc24"],
        },
        # 表示パターンの指定
        :draw => [
          [1],
          [2],
          [3],
          [4],
          [5],
          [6],
          [7],
          [8],
          [9],
          [10],
          [11],
          [12],
          [13],
          [14],
          [15],
          [16],
          [17],
          [18],
          [19],
          [20],
          [21],
          [22],
          [23],
        ],
      },
    86 => { # ナメクジシスター
        :regist => {
          1 => ["Graphics/Pictures/", "ev_name_s_hc1"],
          2 => ["Graphics/Pictures/", "ev_name_s_hc2"],
          3 => ["Graphics/Pictures/", "ev_name_s_hc3"],
        },
        # 表示パターンの指定
        :draw => [
          [1],
          [2],
          [3],
        ],
      },
    87 => { # スラグスターズ
        :regist => {
          1 => ["Graphics/Pictures/", "ev_name2_hb01"],
          2 => ["Graphics/Pictures/", "ev_name2_hb02"],
          3 => ["Graphics/Pictures/", "ev_name2_hb03"],
          4 => ["Graphics/Pictures/", "ev_name2_hb04"],
          5 => ["Graphics/Pictures/", "ev_name2_hb05"],
          6 => ["Graphics/Pictures/", "ev_name2_hb06"],
          7 => ["Graphics/Pictures/", "ev_name2_hb07"],
          8 => ["Graphics/Pictures/", "ev_name2_hb08"],
          9 => ["Graphics/Pictures/", "ev_name2_hb09"],
        },
        # 表示パターンの指定
        :draw => [
          [1],
          [2],
          [3],
          [4],
          [5],
          [6],
          [7],
          [8],
          [9],
        ],
      },
    93 => { # ライオット
        :regist => {
          1 => ["Graphics/Pictures/", "ev_liot_hb01"],
          2 => ["Graphics/Pictures/", "ev_liot_hb02"],
          3 => ["Graphics/Pictures/", "ev_liot_hb03"],
          4 => ["Graphics/Pictures/", "ev_liot_hb04"],
          5 => ["Graphics/Pictures/", "ev_liot_hb05"],
          6 => ["Graphics/Pictures/", "ev_liot_hb06"],
          7 => ["Graphics/Pictures/", "ev_liot_hb07"],
          8 => ["Graphics/Pictures/", "ev_liot_hb08"],
          9 => ["Graphics/Pictures/", "ev_liot_hb09"],
          10 => ["Graphics/Pictures/", "ev_liot_hb10"],
          11 => ["Graphics/Pictures/", "ev_liot_hb11"],
          12 => ["Graphics/Pictures/", "ev_liot_hb12"],
          13 => ["Graphics/Pictures/", "ev_liot_hb13"],
          14 => ["Graphics/Pictures/", "ev_liot_hb14"],
          15 => ["Graphics/Pictures/", "ev_liot_hb15"],
        },
        # 表示パターンの指定
        :draw => [
          [1],
          [2],
          [3],
          [4],
          [5],
          [6],
          [7],
          [8],
          [9],
          [10],
          [11],
          [12],
          [13],
          [14],
          [15],
        ],
      },
    104 => { # クモ娘
        :regist => {
          1 => ["Graphics/Pictures/", "ev_kumo_ha1"],
          2 => ["Graphics/Pictures/", "ev_kumo_ha2"],
          3 => ["Graphics/Pictures/", "ev_kumo_ha3"],
          4 => ["Graphics/Pictures/", "ev_kumo_ha4"],
          5 => ["Graphics/Pictures/", "ev_kumo_ha5"],
          6 => ["Graphics/Pictures/", "ev_kumo_ha6"],
          7 => ["Graphics/Pictures/", "ev_kumo_hc1"],
          8 => ["Graphics/Pictures/", "ev_kumo_hc2"],
          9 => ["Graphics/Pictures/", "ev_kumo_hc3"],
          10 => ["Graphics/Pictures/", "ev_kumo_hc4"],
          11 => ["Graphics/Pictures/", "ev_kumo_hc5"],
          12 => ["Graphics/Pictures/", "ev_kumo_hc6"],
        },
        # 表示パターンの指定
        :draw => [
          [1],
          [2],
          [3],
          [4],
          [5],
          [6],
          [7],
          [8],
          [9],
          [10],
          [11],
          [12],
        ],
      },
    106 => { # 七尾
        :regist => {
          1 => ["Graphics/Pictures/", "ev_nanabi_h5"],
          2 => ["Graphics/Pictures/", "ev_nanabi_h6"],
          3 => ["Graphics/Pictures/", "ev_nanabi_h7"],
          4 => ["Graphics/Pictures/", "ev_nanabi_h8"],
          5 => ["Graphics/Pictures/", "ev_nanabi_h9"],
          6 => ["Graphics/Pictures/", "ev_nanabi_ctc01"],
          7 => ["Graphics/Pictures/", "ev_nanabi_ctc02"],
          8 => ["Graphics/Pictures/", "ev_nanabi_ctc03"],
          9 => ["Graphics/Pictures/", "ev_nanabi_ctc04"],
        },
        # 表示パターンの指定
        :draw => [
          [1],
          [2, 6],
          [3, 7],
          [4, 8],
          [5, 9],
        ],
      },
    109 => { # カニ娘
        :regist => {
          1 => ["Graphics/Pictures/", "ev_kani_h1"],
          2 => ["Graphics/Pictures/", "ev_kani_h2"],
          3 => ["Graphics/Pictures/", "ev_kani_ct21"],
          4 => ["Graphics/Pictures/", "ev_kani_ct22"],
          5 => ["Graphics/Pictures/", "ev_kani_ct23"],
          6 => ["Graphics/Pictures/", "ev_kani_ct24"],
        },
        # 表示パターンの指定
        :draw => [
          [1],
          [1, 3],
          [2, 4],
          [2, 5],
          [2, 6],
        ],
      },
    113 => { # ラミア
        :regist => {
          1 => ["Graphics/Pictures/", "ev_lamia_ha1"],
          2 => ["Graphics/Pictures/", "ev_lamia_ha2"],
          3 => ["Graphics/Pictures/", "ev_lamia_ha3"],
          4 => ["Graphics/Pictures/", "ev_lamia_ha4"],
          5 => ["Graphics/Pictures/", "ev_lamia_ha5"],
          6 => ["Graphics/Pictures/", "ev_lamia_ha6"],
          7 => ["Graphics/Pictures/", "ev_lamia_ha7"],
          8 => ["Graphics/Pictures/", "ev_lamia_ha8"],
          9 => ["Graphics/Pictures/", "ev_lamia_hb1"],
          10 => ["Graphics/Pictures/", "ev_lamia_hb2"],
          11 => ["Graphics/Pictures/", "ev_lamia_hb3"],
          12 => ["Graphics/Pictures/", "ev_lamia_ctb01"],
          13 => ["Graphics/Pictures/", "ev_lamia_ctb02"],
          14 => ["Graphics/Pictures/", "ev_lamia_ctb03"],
        },
        # 表示パターンの指定
        :draw => [
          [1],
          [2],
          [3],
          [4],
          [5],
          [6],
          [7],
          [8],
          [9],
          [9, 12],
          [10, 13],
          [11, 14],
        ],
      },
    121 => { # 65537ページ
        :regist => {
          1 => ["Graphics/Pictures/", "ev_page65537_h1b"],
          2 => ["Graphics/Pictures/", "ev_page65537_h2b"],
          3 => ["Graphics/Pictures/", "ev_page65537_h3b"],
          4 => ["Graphics/Pictures/", "ev_page65537_h1c"],
          5 => ["Graphics/Pictures/", "ev_page65537_h2c"],
          6 => ["Graphics/Pictures/", "ev_page65537_h3c"],
          7 => ["Graphics/Pictures/", "ev_page65537_ct01"],
          8 => ["Graphics/Pictures/", "ev_page65537_ct02"],
          9 => ["Graphics/Pictures/", "ev_page65537_ct03"],
        },
        # 表示パターンの指定
        :draw => [
          [1, 7],
          [2, 8],
          [3, 9],
          [4, 7],
          [5, 8],
          [6, 9],
        ],
      },
    122 => { # シスターラミア
        :regist => {
          1 => ["Graphics/Pictures/", "ev_sisterlamia_hb1"],
          2 => ["Graphics/Pictures/", "ev_sisterlamia_hb2"],
          3 => ["Graphics/Pictures/", "ev_sisterlamia_hb3"],
        },
        # 表示パターンの指定
        :draw => [
          [1],
          [2],
          [3],
        ],
      },
    127 => { # リトルバグ
        :regist => {
          1 => ["Graphics/Pictures/", "ev_littlebug_hb01"],
          2 => ["Graphics/Pictures/", "ev_littlebug_hb02"],
          3 => ["Graphics/Pictures/", "ev_littlebug_hb03"],
          4 => ["Graphics/Pictures/", "ev_littlebug_hb04"],
          5 => ["Graphics/Pictures/", "ev_littlebug_hb05"],
          6 => ["Graphics/Pictures/", "ev_littlebug_hb06"],
          7 => ["Graphics/Pictures/", "ev_littlebug_hb07"],
          8 => ["Graphics/Pictures/", "ev_littlebug_hb08"],
          9 => ["Graphics/Pictures/", "ev_littlebug_hb09"],
          10 => ["Graphics/Pictures/", "ev_littlebug_hb10"],
          11 => ["Graphics/Pictures/", "ev_littlebug_hb11"],
          12 => ["Graphics/Pictures/", "ev_littlebug_hb12"],
          13 => ["Graphics/Pictures/", "ev_littlebug_hb13"],
          14 => ["Graphics/Pictures/", "ev_littlebug_hb14"],
          15 => ["Graphics/Pictures/", "ev_littlebug_hb15"],
          16 => ["Graphics/Pictures/", "ev_littlebug_hb16"],
          17 => ["Graphics/Pictures/", "ev_littlebug_hb17"],
          18 => ["Graphics/Pictures/", "ev_littlebug_hb18"],
          19 => ["Graphics/Pictures/", "ev_littlebug_hb19"],
          20 => ["Graphics/Pictures/", "ev_littlebug_hb20"],
          21 => ["Graphics/Pictures/", "ev_littlebug_hb21"],
          22 => ["Graphics/Pictures/", "ev_littlebug_hb22"],
          23 => ["Graphics/Pictures/", "ev_littlebug_hb23"],
          24 => ["Graphics/Pictures/", "ev_littlebug_hb24"],
          25 => ["Graphics/Pictures/", "ev_littlebug_hb25"],
          26 => ["Graphics/Pictures/", "ev_littlebug_hb26"],
          27 => ["Graphics/Pictures/", "ev_littlebug_hb27"],
          28 => ["Graphics/Pictures/", "ev_littlebug_hb28"],
          29 => ["Graphics/Pictures/", "ev_littlebug_hb29"],
          30 => ["Graphics/Pictures/", "ev_littlebug_hb30"],
          31 => ["Graphics/Pictures/", "ev_littlebug_hb31"],
          32 => ["Graphics/Pictures/", "ev_littlebug_hb32"],
          33 => ["Graphics/Pictures/", "ev_littlebug_hb33"],
          34 => ["Graphics/Pictures/", "ev_littlebug_hb34"],
          35 => ["Graphics/Pictures/", "ev_littlebug_hb35"],
          36 => ["Graphics/Pictures/", "ev_littlebug_hb36"],
          37 => ["Graphics/Pictures/", "ev_littlebug_hb37"],
          38 => ["Graphics/Pictures/", "ev_littlebug_hb39"],
          39 => ["Graphics/Pictures/", "ev_littlebug_hb40"],
          40 => ["Graphics/Pictures/", "ev_littlebug_hb41"],
        },
        # 表示パターンの指定
        :draw => [
          [1],
          [2],
          [3],
          [4],
          [5],
          [6],
          [7],
          [8],
          [9],
          [10],
          [11],
          [12],
          [13],
          [14],
          [15],
          [16],
          [17],
          [18],
          [19],
          [20],
          [21],
          [22],
          [23],
          [24],
          [25],
          [26],
          [27],
          [28],
          [29],
          [30],
          [31],
          [32],
          [33],
          [34],
          [35],
          [36],
          [37],
          [38],
          [39],
          [40],
        ],
      },
    129 => { # ヒルデ
        :regist => {
          1 => ["Graphics/Pictures/", "ev_brunhild_hb01"],
          2 => ["Graphics/Pictures/", "ev_brunhild_hb02"],
          3 => ["Graphics/Pictures/", "ev_brunhild_hb03"],
          4 => ["Graphics/Pictures/", "ev_brunhild_hb04"],
          5 => ["Graphics/Pictures/", "ev_brunhild_hb05"],
          6 => ["Graphics/Pictures/", "ev_brunhild_hb06"],
          7 => ["Graphics/Pictures/", "ev_brunhild_hb07"],
          8 => ["Graphics/Pictures/", "ev_brunhild_hb08"],
          9 => ["Graphics/Pictures/", "ev_brunhild_hb09"],
          10 => ["Graphics/Pictures/", "ev_brunhild_hb10"],
          11 => ["Graphics/Pictures/", "ev_brunhild_hb11"],
          12 => ["Graphics/Pictures/", "ev_brunhild_hb12"],
          13 => ["Graphics/Pictures/", "ev_brunhild_hb13"],
          14 => ["Graphics/Pictures/", "ev_brunhild_hb14"],
          15 => ["Graphics/Pictures/", "ev_brunhild_hb15"],
          16 => ["Graphics/Pictures/", "ev_brunhild_hb16"],
          17 => ["Graphics/Pictures/", "ev_brunhild_hb17"],
          18 => ["Graphics/Pictures/", "ev_brunhild_hb18"],
          19 => ["Graphics/Pictures/", "ev_brunhild_hb19"],
          20 => ["Graphics/Pictures/", "ev_brunhild_hb20"],
          21 => ["Graphics/Pictures/", "ev_brunhild_hb21"],
          22 => ["Graphics/Pictures/", "ev_brunhild_hb22"],
          23 => ["Graphics/Pictures/", "ev_brunhild_hb23"],
          24 => ["Graphics/Pictures/", "ev_brunhild_hb24"],
          25 => ["Graphics/Pictures/", "ev_brunhild_hc01"],
          26 => ["Graphics/Pictures/", "ev_brunhild_hc02"],
          27 => ["Graphics/Pictures/", "ev_brunhild_hc03"],
          28 => ["Graphics/Pictures/", "ev_brunhild_hc04"],
          29 => ["Graphics/Pictures/", "ev_brunhild_hc05"],
          30 => ["Graphics/Pictures/", "ev_brunhild_hc06"],
          31 => ["Graphics/Pictures/", "ev_brunhild_hc07"],
          32 => ["Graphics/Pictures/", "ev_brunhild_hc08"],
          33 => ["Graphics/Pictures/", "ev_brunhild_hc09"],
          34 => ["Graphics/Pictures/", "ev_brunhild_hc10"],
          35 => ["Graphics/Pictures/", "ev_brunhild_hc11"],
          36 => ["Graphics/Pictures/", "ev_brunhild_hc12"],
          37 => ["Graphics/Pictures/", "ev_brunhild_hc13"],
          38 => ["Graphics/Pictures/", "ev_brunhild_hc14"],
          39 => ["Graphics/Pictures/", "ev_brunhild_hc15"],
          40 => ["Graphics/Pictures/", "ev_brunhild_hc16"],
          41 => ["Graphics/Pictures/", "ev_brunhild_hc17"],
          42 => ["Graphics/Pictures/", "ev_brunhild_hc18"],
          43 => ["Graphics/Pictures/", "ev_brunhild_hc19"],
          44 => ["Graphics/Pictures/", "ev_brunhild_hc20"],
          45 => ["Graphics/Pictures/", "ev_brunhild_hc21"],
          46 => ["Graphics/Pictures/", "ev_brunhild_hc22"],
          47 => ["Graphics/Pictures/", "ev_brunhild_hc23"],
          48 => ["Graphics/Pictures/", "ev_brunhild_hc24"],
          49 => ["Graphics/Pictures/", "ev_brunhild_hc25"],
          50 => ["Graphics/Pictures/", "ev_brunhild_hc26"],
        },
        # 表示パターンの指定
        :draw => [
          [1],
          [2],
          [3],
          [4],
          [5],
          [6],
          [7],
          [8],
          [9],
          [10],
          [11],
          [12],
          [13],
          [14],
          [15],
          [16],
          [17],
          [18],
          [19],
          [20],
          [21],
          [22],
          [23],
          [24],
          [25],
          [26],
          [27],
          [28],
          [29],
          [30],
          [31],
          [32],
          [33],
          [34],
          [35],
          [36],
          [37],
          [38],
          [39],
          [40],
          [41],
          [42],
          [43],
          [44],
          [45],
          [46],
          [47],
          [48],
          [49],
          [50],
        ],
      },
    131 => { # 呪いの人形娘
        :regist => {
          1 => ["Graphics/Pictures/", "ev_doll_hc01"],
          2 => ["Graphics/Pictures/", "ev_doll_hc02"],
          3 => ["Graphics/Pictures/", "ev_doll_hc03"],
          4 => ["Graphics/Pictures/", "ev_doll_hc04"],
          5 => ["Graphics/Pictures/", "ev_doll_hc05"],
          6 => ["Graphics/Pictures/", "ev_doll_hc06"],
          7 => ["Graphics/Pictures/", "ev_doll_hc07"],
          8 => ["Graphics/Pictures/", "ev_doll_hc08"],
          9 => ["Graphics/Pictures/", "ev_doll_hc09"],
          10 => ["Graphics/Pictures/", "ev_doll_hc10"],
          11 => ["Graphics/Pictures/", "ev_doll_hc11"],
          12 => ["Graphics/Pictures/", "ev_doll_hc12"],
        },
        # 表示パターンの指定
        :draw => [
          [1],
          [2],
          [3],
          [4],
          [5],
          [6],
          [7],
          [8],
          [9],
          [10],
          [11],
          [12],
        ],
      },
    134 => { # クロム
        :regist => {
          1 => ["Graphics/Pictures/", "ev_chrom_he01"],
          2 => ["Graphics/Pictures/", "ev_chrom_he02"],
          3 => ["Graphics/Pictures/", "ev_chrom_he03"],
          4 => ["Graphics/Pictures/", "ev_chrom_he04"],
          5 => ["Graphics/Pictures/", "ev_chrom_he05"],
          6 => ["Graphics/Pictures/", "ev_chrom_he06"],
          7 => ["Graphics/Pictures/", "ev_chrom_he07"],
          8 => ["Graphics/Pictures/", "ev_chrom_he08"],
          9 => ["Graphics/Pictures/", "ev_chrom_he09"],
          10 => ["Graphics/Pictures/", "ev_chrom_he10"],
          11 => ["Graphics/Pictures/", "ev_chrom_he11"],
          12 => ["Graphics/Pictures/", "ev_chrom_he12"],
          13 => ["Graphics/Pictures/", "ev_chrom_he13"],
          14 => ["Graphics/Pictures/", "ev_chrom_he14"],
          15 => ["Graphics/Pictures/", "ev_chrom_he15"],
          16 => ["Graphics/Pictures/", "ev_chrom_he16"],
          17 => ["Graphics/Pictures/", "ev_chrom_hf1"],
          18 => ["Graphics/Pictures/", "ev_chrom_hf2"],
          19 => ["Graphics/Pictures/", "ev_chrom_hf3"],
          20 => ["Graphics/Pictures/", "ev_chrom_hf4"],
          21 => ["Graphics/Pictures/", "ev_chrom_hf5"],
          22 => ["Graphics/Pictures/", "ev_chrom_hf6"],
          23 => ["Graphics/Pictures/", "ev_chrom_hf7"],
          24 => ["Graphics/Pictures/", "ev_chrom_hf8"],
          25 => ["Graphics/Pictures/", "ev_chrom_hg1"],
          26 => ["Graphics/Pictures/", "ev_chrom_hg2"],
          27 => ["Graphics/Pictures/", "ev_chrom_hg3"],
        },
        # 表示パターンの指定
        :draw => [
          [1],
          [2],
          [3],
          [4],
          [5],
          [6],
          [7],
          [8],
          [9],
          [10],
          [11],
          [12],
          [13],
          [14],
          [15],
          [16],
          [17],
          [18],
          [19],
          [20],
          [21],
          [22],
          [23],
          [24],
          [25],
          [26],
          [27],
        ],
      },
    135 => { # フレデリカ
        :regist => {
          1 => ["Graphics/Pictures/", "ev_frederika_hb1"],
          2 => ["Graphics/Pictures/", "ev_frederika_hb2"],
          3 => ["Graphics/Pictures/", "ev_frederika_hb3"],
          4 => ["Graphics/Pictures/", "ev_frederika_hc1"],
          5 => ["Graphics/Pictures/", "ev_frederika_hc2"],
          6 => ["Graphics/Pictures/", "ev_frederika_hc3"],
        },
        # 表示パターンの指定
        :draw => [
          [1],
          [2],
          [3],
          [4],
          [5],
          [6],
        ],
      },
    142 => { # バナッチ
        :regist => {
          1 => ["Graphics/Pictures/", "ev_bander_hc1"],
          2 => ["Graphics/Pictures/", "ev_bander_hc2"],
          3 => ["Graphics/Pictures/", "ev_bander_hc3"],
          4 => ["Graphics/Pictures/", "ev_bander_hc4"],
        },
        # 表示パターンの指定
        :draw => [
          [1],
          [2],
          [3],
          [4],
        ],
      },
    143 => { # エヴァ
        :regist => {
          1 => ["Graphics/Pictures/", "80_eva_st02"],
          2 => ["Graphics/Pictures/", "ev_eva_ct01"],
          3 => ["Graphics/Pictures/", "ev_eva_ct02"],
          4 => ["Graphics/Pictures/", "ev_eva_ct03"],
          5 => ["Graphics/Pictures/", "ev_eva_ct04"],
          6 => ["Graphics/Pictures/", "ev_eva_ct11"],
          7 => ["Graphics/Pictures/", "ev_eva_ct12"],
          8 => ["Graphics/Pictures/", "ev_eva_ct13"],
          9 => ["Graphics/Pictures/", "ev_eva_ct14"],
          10 => ["Graphics/Pictures/", "ev_eva_ct21"],
          11 => ["Graphics/Pictures/", "ev_eva_ct22"],
          12 => ["Graphics/Pictures/", "ev_eva_ct23"],
          13 => ["Graphics/Pictures/", "ev_eva_ct24"],
          14 => ["Graphics/Pictures/", "ev_eva_ct31"],
          15 => ["Graphics/Pictures/", "ev_eva_ct32"],
          16 => ["Graphics/Pictures/", "ev_eva_ct33"],
          17 => ["Graphics/Pictures/", "ev_eva_ct34"],
        },
        # 表示パターンの指定
        :draw => [
          [1, 2],
          [1, 3],
          [1, 4],
          [1, 5],
          [1, 6],
          [1, 7],
          [1, 8],
          [1, 9],
          [1, 10],
          [1, 11],
          [1, 12],
          [1, 13],
          [1, 14],
          [1, 15],
          [1, 16],
          [1, 17],
        ],
      },
    155 => { # サキ
        :regist => {
          1 => ["Graphics/Pictures/", "ev_saki_hb01"],
          2 => ["Graphics/Pictures/", "ev_saki_hb02"],
          3 => ["Graphics/Pictures/", "ev_saki_hb03"],
          4 => ["Graphics/Pictures/", "ev_saki_hb04"],
          5 => ["Graphics/Pictures/", "ev_saki_hb05"],
          6 => ["Graphics/Pictures/", "ev_saki_hb06"],
          7 => ["Graphics/Pictures/", "ev_saki_hb07"],
          8 => ["Graphics/Pictures/", "ev_saki_hb08"],
          9 => ["Graphics/Pictures/", "ev_saki_hb09"],
          10 => ["Graphics/Pictures/", "ev_saki_hb10"],
          11 => ["Graphics/Pictures/", "ev_saki_hb11"],
          12 => ["Graphics/Pictures/", "ev_saki_hc01"],
          13 => ["Graphics/Pictures/", "ev_saki_hc02"],
          14 => ["Graphics/Pictures/", "ev_saki_hc03"],
          15 => ["Graphics/Pictures/", "ev_saki_hc04"],
          16 => ["Graphics/Pictures/", "ev_saki_hc05"],
          17 => ["Graphics/Pictures/", "ev_saki_hc06"],
          18 => ["Graphics/Pictures/", "ev_saki_hc07"],
          19 => ["Graphics/Pictures/", "ev_saki_hc08"],
          20 => ["Graphics/Pictures/", "ev_saki_hc09"],
          21 => ["Graphics/Pictures/", "ev_saki_hc10"],
          22 => ["Graphics/Pictures/", "ev_saki_hd1"],
          23 => ["Graphics/Pictures/", "ev_saki_hd2"],
          24 => ["Graphics/Pictures/", "ev_saki_hd3"],
          25 => ["Graphics/Pictures/", "ev_saki_hd4"],
          26 => ["Graphics/Pictures/", "ev_saki_he1"],
          27 => ["Graphics/Pictures/", "ev_saki_he2"],
          28 => ["Graphics/Pictures/", "ev_saki_he3"],
          29 => ["Graphics/Pictures/", "ev_saki_he4"],
          30 => ["Graphics/Pictures/", "ev_saki_he5"],
          31 => ["Graphics/Pictures/", "ev_saki_he6"],
          32 => ["Graphics/Pictures/", "ev_saki_he7"],
          33 => ["Graphics/Pictures/", "ev_saki_he8"],
        },
        # 表示パターンの指定
        :draw => [
          [1],
          [2],
          [3],
          [4],
          [5],
          [6],
          [7],
          [8],
          [9],
          [10],
          [11],
          [12],
          [13],
          [14],
          [15],
          [16],
          [17],
          [18],
          [19],
          [20],
          [21],
          [22],
          [23],
          [24],
          [25],
          [26],
          [27],
          [28],
          [29],
          [30],
          [31],
          [32],
          [33],
        ],
      },
    156 => { # デビルファイター
        :regist => {
          1 => ["Graphics/Pictures/", "ev_d_fighter_ha01"],
          2 => ["Graphics/Pictures/", "ev_d_fighter_ha02"],
          3 => ["Graphics/Pictures/", "ev_d_fighter_ha03"],
          4 => ["Graphics/Pictures/", "ev_d_fighter_ha04"],
          5 => ["Graphics/Pictures/", "ev_d_fighter_ha05"],
          6 => ["Graphics/Pictures/", "ev_d_fighter_ha06"],
          7 => ["Graphics/Pictures/", "ev_d_fighter_ha07"],
          8 => ["Graphics/Pictures/", "ev_d_fighter_ha08"],
          9 => ["Graphics/Pictures/", "ev_d_fighter_ha09"],
          10 => ["Graphics/Pictures/", "ev_d_fighter_ha10"],
        },
        # 表示パターンの指定
        :draw => [
          [1],
          [2],
          [3],
          [4],
          [5],
          [6],
          [7],
          [8],
          [9],
          [10],
        ],
      },
    160 => { # ワームビレッジャ
        :regist => {
          1 => ["Graphics/Pictures/", "ev_wormv_h1"],
          2 => ["Graphics/Pictures/", "ev_wormv_h4"],
          3 => ["Graphics/Pictures/", "ev_wormv_h5"],
        },
        # 表示パターンの指定
        :draw => [
          [1],
          [2],
          [3],
        ],
      },
    163 => { # リリィ
        :regist => {
          1 => ["Graphics/Pictures/", "ev_lily_h01"],
          2 => ["Graphics/Pictures/", "ev_lily_h02"],
          3 => ["Graphics/Pictures/", "ev_lily_h03"],
          4 => ["Graphics/Pictures/", "ev_lily_h04"],
          5 => ["Graphics/Pictures/", "ev_lily_h05"],
        },
        # 表示パターンの指定
        :draw => [
          [1],
          [2],
          [3],
          [4],
          [5],
        ],
      },
    166 => { # ナーキュバス
        :regist => {
          1 => ["Graphics/Pictures/", "ev_narcubus_hb1"],
          2 => ["Graphics/Pictures/", "ev_narcubus_hb2"],
          3 => ["Graphics/Pictures/", "ev_narcubus_hb3"],
          4 => ["Graphics/Pictures/", "ev_narcubus_hb4"],
          5 => ["Graphics/Pictures/", "ev_narcubus_hc1"],
          6 => ["Graphics/Pictures/", "ev_narcubus_hc2"],
          7 => ["Graphics/Pictures/", "ev_narcubus_hc3"],
          8 => ["Graphics/Pictures/", "ev_narcubus_hc4"],
          9 => ["Graphics/Pictures/", "ev_narcubus_hc5"],
          10 => ["Graphics/Pictures/", "ev_narcubus_hc6"],
        },
        # 表示パターンの指定
        :draw => [
          [1],
          [2],
          [3],
          [4],
          [5],
          [6],
          [7],
          [8],
          [9],
          [10],
        ],
      },
    171 => { # リザードボス
        :regist => {
          1 => ["Graphics/Pictures/", "ev_lizardboss_hb1"],
          2 => ["Graphics/Pictures/", "ev_lizardboss_hb2"],
          3 => ["Graphics/Pictures/", "ev_lizardboss_hb3"],
          4 => ["Graphics/Pictures/", "ev_lizardboss_hb4"],
        },
        # 表示パターンの指定
        :draw => [
          [1],
          [2],
          [3],
          [4],
        ],
      },
    176 => { # ヴィタエ
        :regist => {
          1 => ["Graphics/Pictures/", "80_vitae_st02"],
          2 => ["Graphics/Pictures/", "ev_vitae_ct01"],
          3 => ["Graphics/Pictures/", "ev_vitae_ct02"],
          4 => ["Graphics/Pictures/", "ev_vitae_ct03"],
          5 => ["Graphics/Pictures/", "ev_vitae_ct04"],
          6 => ["Graphics/Pictures/", "ev_vitae_ct05"],
          7 => ["Graphics/Pictures/", "ev_vitae_ct06"],
        },
        # 表示パターンの指定
        :draw => [
          [1, 2],
          [1, 3],
          [1, 4],
          [1, 5],
          [1, 6],
          [1, 7],
        ],
      },
    177 => { # ヴェータラ
        :regist => {
          1 => ["Graphics/Pictures/", "ev_vetala_hc01"],
          2 => ["Graphics/Pictures/", "ev_vetala_hc02"],
          3 => ["Graphics/Pictures/", "ev_vetala_hc03"],
          4 => ["Graphics/Pictures/", "ev_vetala_hc04"],
          5 => ["Graphics/Pictures/", "ev_vetala_hc05"],
          6 => ["Graphics/Pictures/", "ev_vetala_hc06"],
          7 => ["Graphics/Pictures/", "ev_vetala_hc07"],
          8 => ["Graphics/Pictures/", "ev_vetala_hc08"],
          9 => ["Graphics/Pictures/", "ev_vetala_hc09"],
          10 => ["Graphics/Pictures/", "ev_vetala_hc10"],
          11 => ["Graphics/Pictures/", "ev_vetala_hc11"],
          12 => ["Graphics/Pictures/", "ev_vetala_hc12"],
          13 => ["Graphics/Pictures/", "ev_vetala_hc13"],
          14 => ["Graphics/Pictures/", "ev_vetala_hc14"],
          15 => ["Graphics/Pictures/", "ev_vetala_hc15"],
          16 => ["Graphics/Pictures/", "ev_vetala_hc16"],
          17 => ["Graphics/Pictures/", "ev_vetala_hc17"],
          18 => ["Graphics/Pictures/", "ev_vetala_hc18"],
          19 => ["Graphics/Pictures/", "ev_vetala_hc19"],
          20 => ["Graphics/Pictures/", "ev_vetala_hc20"],
          21 => ["Graphics/Pictures/", "ev_vetala_hc21"],
          22 => ["Graphics/Pictures/", "ev_vetala_hc22"],
          23 => ["Graphics/Pictures/", "ev_vetala_hc23"],
          24 => ["Graphics/Pictures/", "ev_vetala_hc24"],
          25 => ["Graphics/Pictures/", "ev_vetala_hc25"],
          26 => ["Graphics/Pictures/", "ev_vetala_hc26"],
        },
        # 表示パターンの指定
        :draw => [
          [1],
          [2],
          [3],
          [4],
          [5],
          [6],
          [7],
          [8],
          [9],
          [10],
          [11],
          [12],
          [13],
          [14],
          [15],
          [16],
          [17],
          [18],
          [19],
          [20],
          [21],
          [22],
          [23],
          [24],
          [25],
          [26],
        ],
      },
    178 => { # ヴァルト
        :regist => {
          1 => ["Graphics/Pictures/", "ev_valt_hb01"],
          2 => ["Graphics/Pictures/", "ev_valt_hb02"],
          3 => ["Graphics/Pictures/", "ev_valt_hb03"],
          4 => ["Graphics/Pictures/", "ev_valt_hb04"],
          5 => ["Graphics/Pictures/", "ev_valt_hb05"],
          6 => ["Graphics/Pictures/", "ev_valt_hb06"],
          7 => ["Graphics/Pictures/", "ev_valt_hb07"],
          8 => ["Graphics/Pictures/", "ev_valt_hb08"],
          9 => ["Graphics/Pictures/", "ev_valt_hb09"],
          10 => ["Graphics/Pictures/", "ev_valt_hb10"],
          11 => ["Graphics/Pictures/", "ev_valt_hb11"],
          12 => ["Graphics/Pictures/", "ev_valt_hb12"],
          13 => ["Graphics/Pictures/", "ev_valt_hb13"],
          14 => ["Graphics/Pictures/", "ev_valt_hb14"],
          15 => ["Graphics/Pictures/", "ev_valt_hb15"],
          16 => ["Graphics/Pictures/", "ev_valt_hb16"],
          17 => ["Graphics/Pictures/", "ev_valt_hb17"],
          18 => ["Graphics/Pictures/", "ev_valt_hb18"],
          19 => ["Graphics/Pictures/", "ev_valt_hb19"],
          20 => ["Graphics/Pictures/", "ev_valt_hb20"],
          21 => ["Graphics/Pictures/", "ev_valt_hb21"],
          22 => ["Graphics/Pictures/", "ev_valt_hb22"],
          23 => ["Graphics/Pictures/", "ev_valt_hb23"],
        },
        # 表示パターンの指定
        :draw => [
          [1],
          [2],
          [3],
          [4],
          [5],
          [6],
          [7],
          [8],
          [9],
          [10],
          [11],
          [12],
          [13],
          [14],
          [15],
          [16],
          [17],
          [18],
          [19],
          [20],
          [21],
          [22],
          [23],
        ],
      },
    184 => { # ジャンクドール娘
        :regist => {
          1 => ["Graphics/Pictures/", "ev_junkdoll_hb1"],
          2 => ["Graphics/Pictures/", "ev_junkdoll_hb2"],
          3 => ["Graphics/Pictures/", "ev_junkdoll_hb3"],
          4 => ["Graphics/Pictures/", "ev_junkdoll_hc1"],
          5 => ["Graphics/Pictures/", "ev_junkdoll_hc2"],
          6 => ["Graphics/Pictures/", "ev_junkdoll_hc3"],
          7 => ["Graphics/Pictures/", "ev_junkdoll_hc4"],
          8 => ["Graphics/Pictures/", "ev_junkdoll_hc5"],
          9 => ["Graphics/Pictures/", "ev_junkdoll_hc6"],
          10 => ["Graphics/Pictures/", "ev_junkdoll_hc7"],
          11 => ["Graphics/Pictures/", "ev_junkdoll_hc8"],
        },
        # 表示パターンの指定
        :draw => [
          [1],
          [2],
          [3],
          [4],
          [5],
          [6],
          [7],
          [8],
          [9],
          [10],
          [11],
        ],
      },
    185 => { # ラディオ
        :regist => {
          1 => ["Graphics/Pictures/", "ev_radio_h01"],
          2 => ["Graphics/Pictures/", "ev_radio_h02"],
          3 => ["Graphics/Pictures/", "ev_radio_h03"],
          4 => ["Graphics/Pictures/", "ev_radio_h04"],
          5 => ["Graphics/Pictures/", "ev_radio_h05"],
          6 => ["Graphics/Pictures/", "ev_radio_h06"],
          7 => ["Graphics/Pictures/", "ev_radio_h07"],
          8 => ["Graphics/Pictures/", "ev_radio_h08"],
          9 => ["Graphics/Pictures/", "ev_radio_h09"],
          10 => ["Graphics/Pictures/", "ev_radio_h10"],
          11 => ["Graphics/Pictures/", "ev_radio_h11"],
          12 => ["Graphics/Pictures/", "ev_radio_h12"],
          13 => ["Graphics/Pictures/", "ev_radio_h13"],
          14 => ["Graphics/Pictures/", "ev_radio_h14"],
        },
        # 表示パターンの指定
        :draw => [
          [1],
          [2],
          [3],
          [4],
          [5],
          [6],
          [7],
          [8],
          [9],
          [10],
          [11],
          [12],
          [13],
          [14],
        ],
      },
    525 => { # ソニア
        :regist => {
          1 => ["Graphics/Pictures/", "ev_sonia_ha01"],
          2 => ["Graphics/Pictures/", "ev_sonia_ha02"],
          3 => ["Graphics/Pictures/", "ev_sonia_ha03"],
          4 => ["Graphics/Pictures/", "ev_sonia_ha04"],
          5 => ["Graphics/Pictures/", "ev_sonia_ha05"],
          6 => ["Graphics/Pictures/", "ev_sonia_ha06"],
          7 => ["Graphics/Pictures/", "ev_sonia_ha07"],
          8 => ["Graphics/Pictures/", "ev_sonia_ha08"],
          9 => ["Graphics/Pictures/", "ev_sonia_ha09"],
          10 => ["Graphics/Pictures/", "ev_sonia_ha10"],
          11 => ["Graphics/Pictures/", "ev_sonia_ha11"],
          12 => ["Graphics/Pictures/", "ev_sonia_ha12"],
          13 => ["Graphics/Pictures/", "ev_sonia_ha13"],
          14 => ["Graphics/Pictures/", "ev_sonia_ha14"],
          15 => ["Graphics/Pictures/", "ev_sonia_ha15"],
          16 => ["Graphics/Pictures/", "ev_sonia_ha16"],
          17 => ["Graphics/Pictures/", "ev_sonia_ha17"],
          18 => ["Graphics/Pictures/", "ev_sonia_ha18"],
          19 => ["Graphics/Pictures/", "ev_sonia_ha19"],
          20 => ["Graphics/Pictures/", "ev_sonia_ha20"],
          21 => ["Graphics/Pictures/", "ev_sonia_ha21"],
          22 => ["Graphics/Pictures/", "ev_sonia_hb01"],
          23 => ["Graphics/Pictures/", "ev_sonia_hb02"],
          24 => ["Graphics/Pictures/", "ev_sonia_hb03"],
          25 => ["Graphics/Pictures/", "ev_sonia_hb04"],
          26 => ["Graphics/Pictures/", "ev_sonia_hb05"],
          27 => ["Graphics/Pictures/", "ev_sonia_hb06"],
          28 => ["Graphics/Pictures/", "ev_sonia_hb07"],
          29 => ["Graphics/Pictures/", "ev_sonia_hb08"],
          30 => ["Graphics/Pictures/", "ev_sonia_hb09"],
          31 => ["Graphics/Pictures/", "ev_sonia_hb10"],
          32 => ["Graphics/Pictures/", "ev_sonia_hb11"],
          33 => ["Graphics/Pictures/", "ev_sonia_hb12"],
          34 => ["Graphics/Pictures/", "ev_sonia_hb13"],
          35 => ["Graphics/Pictures/", "ev_sonia_hb14"],
          36 => ["Graphics/Pictures/", "ev_sonia_hb15"],
          37 => ["Graphics/Pictures/", "ev_sonia_hb16"],
          38 => ["Graphics/Pictures/", "ev_sonia_hb17"],
          39 => ["Graphics/Pictures/", "ev_sonia_hb18"],
          40 => ["Graphics/Pictures/", "ev_sonia_hb19"],
        },
        # 表示パターンの指定
        :draw => [
          [1],
          [2],
          [3],
          [4],
          [5],
          [6],
          [7],
          [8],
          [9],
          [10],
          [11],
          [12],
          [13],
          [14],
          [15],
          [16],
          [17],
          [18],
          [19],
          [20],
          [21],
          [22],
          [23],
          [24],
          [25],
          [26],
          [27],
          [28],
          [29],
          [30],
          [31],
          [32],
          [33],
          [34],
          [35],
          [36],
          [37],
          [38],
          [39],
          [40],
        ],
      },
    529 => { # サラ
        :regist => {
          1 => ["Graphics/Pictures/", "ev_sara_ha1"],
          2 => ["Graphics/Pictures/", "ev_sara_ha2"],
          3 => ["Graphics/Pictures/", "ev_sara_ha3"],
          4 => ["Graphics/Pictures/", "ev_sara_hb1"],
          5 => ["Graphics/Pictures/", "ev_sara_hb2"],
          6 => ["Graphics/Pictures/", "ev_sara_hb3"],
          7 => ["Graphics/Pictures/", "ev_sara_hb4"], 
        },
        # 表示パターンの指定
        :draw => [
          [1],
          [2],
          [3],
          [4],
          [5],
          [6],
          [7],
        ],
      },
  }

  # アクター画像の設定
  # パス,ファイル名,色相,X調整値,Y調整値,拡縮率で記述します。
  # X座標の基準点は中央,Y座標の基準点は最下部です。
  # X調整値に値が設定された時点で自動縮小機能がOFFになります。
  # 色相以降の設定値は省略可能です。(デフォルト値:色相=0,X調整値=0,Y調整値=0,拡縮率=1.00)
  ACTOR_IMAGE = {
    1 => ["Graphics/Pictures/", "80_ruka_st01",0,20,0,0.9],
    5 => ["Graphics/Pictures/", "80_alice_st71",0,0,0],
    12 => ["Graphics/Pictures/", "80_sylph_st01",0,0,-20,0.9],
    13 => ["Graphics/Pictures/", "80_gnome_st01",0,0,0,0.9],
    26 => ["Graphics/Pictures/", "80_iriasu_st31",0,0,0,0.8],
    41 => ["Graphics/Pictures/", "80_stein_st31",0,0,-20,0.9],
    53 => ["Graphics/Pictures/", "80_slime_st01",0,0,-30,0.9],
    54 => ["Graphics/Pictures/", "80_bunnyslime_st01",0,0,0,0.8],
    55 => ["Graphics/Pictures/", "80_name_st01",0,-30,-40,0.9],
    56 => ["Graphics/Pictures/", "80_inp_st01",0,0,-20,0.9],
    57 => ["Graphics/Pictures/", "80_inp_st21",0,0,-10,0.9],
    58 => ["Graphics/Pictures/", "80_inp_st11",0,0,-10,0.9],
    59 => ["Graphics/Pictures/", "80_mdg_st01",0,0,0,0.8],
    60 => ["Graphics/Pictures/", "80_dog_st01",0,0,-10,0.9],
    61 => ["Graphics/Pictures/", "80_mimizu_st01",0,0,0,0.8],
    62 => ["Graphics/Pictures/", "80_gob_st01",0,0,0,0.9],
    64 => ["Graphics/Pictures/", "80_pramia_st01",0,0,0,0.9],
    66 => ["Graphics/Pictures/", "80_vgirl_st01",0,0,0,0.9],
    68 => ["Graphics/Pictures/", "80_dragonp_st01",0,0,0,0.9],
    70 => ["Graphics/Pictures/", "80_nezumi_st01",0,-20,-20,0.9],
    71 => ["Graphics/Pictures/", "80_okami_st01",0,0,-20,0.9],
    72 => ["Graphics/Pictures/", "80_phoenix_st01",0,0,0,0.9],
    73 => ["Graphics/Pictures/", "80_hiru_st01",0,0,0,0.8],
    74 => ["Graphics/Pictures/", "80_usagi_st01",0,0,0,0.85],
    75 => ["Graphics/Pictures/", "80_hituzi_st01",0,0,-30,0.8],
    76 => ["Graphics/Pictures/", "80_syuree_st01",0,0,0,0.8],
    77 => ["Graphics/Pictures/", "80_jeid_st01",0,0,0,0.9],
    78 => ["Graphics/Pictures/", "80_syesta_st01",0,0,0,0.9],
    79 => ["Graphics/Pictures/", "80_nuruko_st01",0,0,-50,0.9],
    80 => ["Graphics/Pictures/", "80_orc_st01",0,40,-40],
    81 => ["Graphics/Pictures/", "80_mitubati_st01",0,0,0,0.8],
    82 => ["Graphics/Pictures/", "80_suzume_st01",0,0,0,0.8],
    83 => ["Graphics/Pictures/", "80_hapy_a_st01",0,0,0,0.9],
    84 => ["Graphics/Pictures/", "80_hapy_bc_st01",0,0,0,0.9],
    85 => ["Graphics/Pictures/", "80_highslag_st01",0,0,0,0.8],
    86 => ["Graphics/Pictures/", "80_name_s_st01",0,0,-30,0.9],
    87 => ["Graphics/Pictures/", "80_name2_st01",0,0,0,0.8],
    88 => ["Graphics/Pictures/", "80_jack_st01",0,-40,0,0.8],
    89 => ["Graphics/Pictures/", "80_ropa_st01",0,0,0,0.8],
    90 => ["Graphics/Pictures/", "80_meda_st01",0,0,-20,0.9],
    91 => ["Graphics/Pictures/", "80_candle_st01",0,0,-20,0.9],
    92 => ["Graphics/Pictures/", "80_eater_st01",0,0,-20,0.9],
    93 => ["Graphics/Pictures/", "80_liot_st01",0,0,-20,0.9],
    94 => ["Graphics/Pictures/", "80_luksl_st01",0,0,-20,0.9],
    95 => ["Graphics/Pictures/", "80_delh_a_st01",0,0,-20,0.9],
    96 => ["Graphics/Pictures/", "80_delh_b_st01",0,0,-20,0.9],
    97 => ["Graphics/Pictures/", "80_fairy_st01",0,0,-20,0.9],
    98 => ["Graphics/Pictures/", "80_minikani_st01",0,0,-20,0.9],
    99 => ["Graphics/Pictures/", "80_namazu_st01",0,0,-20,0.9],
    100 => ["Graphics/Pictures/", "80_rahure_st01",0,0,-20,0.9],
    101 => ["Graphics/Pictures/", "80_cent2_st01",0,0,-20,0.9],
    102 => ["Graphics/Pictures/", "80_youko_st01",0,0,-20,0.9],
    103 => ["Graphics/Pictures/", "80_kamuro_st01",0,0,-20,0.9],
    104 => ["Graphics/Pictures/", "80_kumo_st01",0,0,-20,0.9],
    105 => ["Graphics/Pictures/", "80_mimic_st01",0,0,-20,0.9],
    106 => ["Graphics/Pictures/", "80_nanabi_st01",0,0,-20,0.9],
    107 => ["Graphics/Pictures/", "80_namako_st01",0,0,-20,0.9],
    108 => ["Graphics/Pictures/", "80_kai_st01",0,0,-20,0.9],
    109 => ["Graphics/Pictures/", "80_kani_st01",0,0,-20,0.9],
    110 => ["Graphics/Pictures/", "80_slimelord_st01",0,0,0,0.7],
    111 => ["Graphics/Pictures/", "80_suika_st01",0,0,-20,0.9],
    112 => ["Graphics/Pictures/", "80_utubo_st01",0,0,-20,0.9],
    113 => ["Graphics/Pictures/", "80_lamia_st01",0,0,-20,0.9],
    114 => ["Graphics/Pictures/", "80_wakame_st01",0,0,-20,0.9],
    115 => ["Graphics/Pictures/", "80_kurage_st01",0,0,-20,0.9],
    116 => ["Graphics/Pictures/", "80_iso_st01",0,0,-20,0.9],
    117 => ["Graphics/Pictures/", "80_ankou_st01",0,0,-20,0.9],
    118 => ["Graphics/Pictures/", "80_meia_st01",0,0,-20,0.9],
    119 => ["Graphics/Pictures/", "80_page17_st01",0,0,-20,0.9],
    120 => ["Graphics/Pictures/", "80_page257_st01",0,0,-20,0.9],
    121 => ["Graphics/Pictures/", "80_page65537_st01",0,0,-20,0.9],
    122 => ["Graphics/Pictures/", "80_sisterlamia_st01",0,50,-20,0.9],
    123 => ["Graphics/Pictures/", "80_sisccubus_st01",0,0,-20,0.9],
    124 => ["Graphics/Pictures/", "80_arikui_st01",0,0,0,0.8],
    125 => ["Graphics/Pictures/", "80_grizzly_st01",0,0,-40],
    126 => ["Graphics/Pictures/", "80_XX-7_st01",0,0,0,0.8],
    127 => ["Graphics/Pictures/", "80_littlebug_st01",0,0,-20,0.9],
    128 => ["Graphics/Pictures/", "80_kaniloid_st01",0,0,-20,0.9],
    129 => ["Graphics/Pictures/", "80_brunhild_st01",0,0,-20,0.9],
    130 => ["Graphics/Pictures/", "80_ghost_st01",0,0,-20,0.9],
    131 => ["Graphics/Pictures/", "80_doll_st01",0,0,-20,0.9],
    132 => ["Graphics/Pictures/", "80_zonbe_st11",0,0,-20,0.9],
    133 => ["Graphics/Pictures/", "80_zonbe_st21",0,0,-20,0.9],
    134 => ["Graphics/Pictures/", "80_chrom_st21",0,0,-20,0.9],
    135 => ["Graphics/Pictures/", "80_frederika_st01",0,0,-20,0.9],
    136 => ["Graphics/Pictures/", "80_elf_st01",0,0,-20,0.9],
    137 => ["Graphics/Pictures/", "80_braunys_st01",0,0,-20,0.8],
    138 => ["Graphics/Pictures/", "80_tfairy_st01",0,0,-20,0.9],
    139 => ["Graphics/Pictures/", "80_fairys_st01",0,0,-20,0.9],
    140 => ["Graphics/Pictures/", "80_taran_st01",0,0,-20,0.9],
    141 => ["Graphics/Pictures/", "80_mino_st01",0,0,-20,0.9],
    142 => ["Graphics/Pictures/", "80_bander_st01",0,0,-20,0.9],
    143 => ["Graphics/Pictures/", "80_eva_st01",0,0,0,0.9],
    144 => ["Graphics/Pictures/", "80_saboresu_st01",0,0,-80],
    145 => ["Graphics/Pictures/", "80_mukade_st01",0,0,-20,0.9],
    146 => ["Graphics/Pictures/", "80_sasori_st01",0,0,-20,0.9],
    147 => ["Graphics/Pictures/", "80_saboten_st01",0,0,-20,0.9],
    148 => ["Graphics/Pictures/", "80_datyou_st01",0,80,-20,0.9],
    149 => ["Graphics/Pictures/", "80_lamp_st21",0,0,-20,0.9],
    150 => ["Graphics/Pictures/", "80_mummy_st01",0,0,-20,0.9],
    151 => ["Graphics/Pictures/", "80_kobura_st01",0,0,-20,0.9],
    152 => ["Graphics/Pictures/", "80_lamias_st01",0,0,-20,0.9],
    154 => ["Graphics/Pictures/", "80_wani_st01",0,0,-20,0.9],
    155 => ["Graphics/Pictures/", "80_saki_st01",0,0,-20,0.9],
    156 => ["Graphics/Pictures/", "80_d_fighter_st01",0,0,-20,0.9],
    157 => ["Graphics/Pictures/", "80_oogumo_st01",0,0,-20,0.8],
    158 => ["Graphics/Pictures/", "80_suckvore_st01",0,0,-20,0.9],
    159 => ["Graphics/Pictures/", "80_ironmaiden_st01",0,0,-20,0.9],
    160 => ["Graphics/Pictures/", "80_wormv_st01",0,0,-20,0.9],
    161 => ["Graphics/Pictures/", "80_ustrel_st01",0,0,-40,0.9],
    162 => ["Graphics/Pictures/", "80_mitutubo_st01",0,0,-20,0.9],
    163 => ["Graphics/Pictures/", "80_lily_st01",0,0,-20,0.9],
    164 => ["Graphics/Pictures/", "80_kooni_st01",0,0,-50],
    165 => ["Graphics/Pictures/", "80_onaho_st01",0,0,0,0.8],
    166 => ["Graphics/Pictures/", "80_narcubus_st11",0,0,-20,0.9],
    167 => ["Graphics/Pictures/", "80_lusia_st01",0,0,-20,0.9],
    168 => ["Graphics/Pictures/", "80_dodome_st01",0,0,-20,0.9],
    169 => ["Graphics/Pictures/", "80_lizardthief_st01",0,0,-40,0.9],
    170 => ["Graphics/Pictures/", "80_lizardthief_st11",0,0,-40,0.9],
    171 => ["Graphics/Pictures/", "80_lizardboss_st01",0,0,-20,0.9],
    172 => ["Graphics/Pictures/", "80_sinkiro_st01",0,0,-20,0.9],
    173 => ["Graphics/Pictures/", "80_arizigoku_st01",0,0,-20,0.9],
    174 => ["Graphics/Pictures/", "80_sandw_st01",0,30,-20,0.9],
    175 => ["Graphics/Pictures/", "80_d_scylla_st01",0,0,-20,0.9],
    176 => ["Graphics/Pictures/", "80_vitae_st01",0,0,-20,0.9],
    177 => ["Graphics/Pictures/", "80_vetala_st01",0,0,-20,0.9],
    178 => ["Graphics/Pictures/", "80_valt_st01",0,0,-20,0.9],
    179 => ["Graphics/Pictures/", "80_sinifa_st01",0,0,-20,0.9],
    180 => ["Graphics/Pictures/", "80_shadow_st01",0,0,-20,0.9],
    181 => ["Graphics/Pictures/", "80_gaistvine_st01",0,0,-20,0.9],
    182 => ["Graphics/Pictures/", "80_c_homunculus_st01",0,0,-20,0.9],
    183 => ["Graphics/Pictures/", "80_ironmaiden_k_st01",0,0,-20,0.9],
    184 => ["Graphics/Pictures/", "80_junkdoll_st01",0,0,-20,0.9],
    185 => ["Graphics/Pictures/", "80_radio_st01",0,0,-20,0.8],
    525 => ["Graphics/Pictures/", "80_sonia_s1_st01",0,0,-70],
    529 => ["Graphics/Pictures/", "80_sara_st01",0,0,-20,0.9],
    531 => ["Graphics/Pictures/", "80_saniria_st12",0,0,-20,0.9],
    533 => ["Graphics/Pictures/", "80_grandnoa_st01",0,0,-20,0.9],
    540 => ["Graphics/Pictures/", "80_amira_st01",0,0,-20,0.9],
    541 => ["Graphics/Pictures/", "80_piha_st01",0,0,-20,0.9],
    542 => ["Graphics/Pictures/", "80_domeima_st01",0,-70,-20,0.9],
    544 => ["Graphics/Pictures/", "80_mob_maid_st01",0,0,-20,0.9],
    545 => ["Graphics/Pictures/", "80_mob_murabito1_st01",0,0,-20,0.9],
    546 => ["Graphics/Pictures/", "80_mob_hurou_st01",0,0,-20,0.9],
    547 => ["Graphics/Pictures/", "80_dondaria_st01",0,0,-20,0.9],
    548 => ["Graphics/Pictures/", "80_mob_bunny1_st01",0,0,-20,0.9],
    549 => ["Graphics/Pictures/", "80_mob_touzoku_st01",0,0,-20,0.9],
    550 => ["Graphics/Pictures/", "80_mob_kakutou_st01",0,0,-20,0.9],
    551 => ["Graphics/Pictures/", "80_mob_maid1_st01",0,0,-20,0.9],
    552 => ["Graphics/Pictures/", "80_mob_elf1_st01",0,0,-20,0.9],
    553 => ["Graphics/Pictures/", "80_mob_gakusya1_st01",0,0,-20,0.9],
    554 => ["Graphics/Pictures/", "80_mob_nasu1_st01",0,0,-20,0.9],
    555 => ["Graphics/Pictures/", "80_mob_murabito2_st01",0,0,-20,0.9],
    556 => ["Graphics/Pictures/", "80_mob_sister1_st01",0,0,-20,0.9],
    557 => ["Graphics/Pictures/", "80_justice_st01",0,0,-20,0.9],
    558 => ["Graphics/Pictures/", "80_mob_uranai1_st01",0,0,-20,0.9],
    559 => ["Graphics/Pictures/", "80_mob_assasin1_st01",0,0,-20,0.9],
    560 => ["Graphics/Pictures/", "80_mob_odoriko1_st01",0,0,-20,0.9],
    561 => ["Graphics/Pictures/", "80_mob_majyo1_st01",0,0,-20,0.9],
    562 => ["Graphics/Pictures/", "80_mob_bukiya1_st01",0,0,-20,0.9],
  }
  # アクター固有アビリティの設定
  FIX_ABILITY_NAME = "Trait:"
  ACTOR_FIX_ABILITY = {
    1 => ["Hero's Blood",
      "Can always use Sword, Axe,",
      "Spear, Holy, and Heroism",
      "skills. Heroism skills",
      "deal +30% damage.",
    ],
    5 => ["Petite Monster Lord",
      "Can always use Black Magic,",
      "Dark, and Demon Arts skills.",
      "Skills that sacrifice health",
      "have 1/2 HP cost.",
    ],
    12 => ["Wind Spirit",
      "Wind attacks deal +30% damage.",
      "Can always use Thievery and Nature",
      "skills. Gain Extreme Gale status",
      "while below 20% HP.",
    ],
    13 => ["Earth Spirit",
      "Earth attacks deal +30% damage.",
      "Can always use Club, Unarmed and",
      "Nature skills. Unarmed skills use",
      "Attack instead of Agility. Gain",
      "Wild Lands status while below",
      "20% HP.",
    ],
    26 => ["Goddess of Creation",
      "Can always use White Magic",
      "and Holy skills. Holy and",
      "weapon-based skills have",
      "1/2 MP cost.",
    ],
    41 => ["Mad Scientist Angel",
      "Can always use Medicine and Magic",
      "Science skills. Magic Science",
      "skills deal +30% damage.",
    ],
    53 => ["Boomerang Love",
      "Can always equip Boomerangs",
      "and use Throwing skills.",
      "Throwing skills deal",
      "+30% damage.",
    ],
    54 => ["Self-Proclaimed Rabbit",
      "Can always use Beast skills.",
      "Agility gets a 30% boost.",
    ],
    55 => ["Slimy Slug",
      "Normal attack has Slimed Strike",
      "50%.  Immune to Slimed. Can",
      "always equip Dresses and Skimpy",
      "armor."
    ],
    56 => ["Pyro Imp",
      "Can always use Black Magic.",
      "Black Magic has 2/3 MP cost.",
      "Fire attacks deal +30% damage.",
    ],
    57 => ["Grappler Imp",
      "Can always use Unarmed skills.",
      "Unarmed skills deal +15% damage.",
    ],
    58 => ["Timid Imp",
      "Can always use White Magic.",
      "Targeted 75% as often by enemies",
      "Gain +75% evasion for 4 turns",
      "when falling below 20% HP.",
    ],
    59 => ["Mandragora Heart",
      "Normal attack has Paralysis",
      "Strike 15%. Immune to Sonic",
      "damage, Paralysis, and Confusion.",
      "Singing skills inflict status",
      "effects 30% more often.",
    ],
    60 => ["Dog Girl",
      "Normal attack has Stun Strike",
      "20%. +500 Agility when using",
      "normal attack. Immune to Stun.",
      "33% chance to dig a hole at end",
      "of turn.",
    ],
    61 => ["Sticky Earthworm",
      "Can always use Snake skills.",
      "Normal attack has Slimed Strike",
      "50%. Immune to Slimed. 33 chance",
      "to dig a hole at end of turn.",
    ],
    62 => ["Zazoom Bandit!",
      "Can always equip Clubs. Can always",
      "use Club and Thievery skills. +10%",
      "to Crit and Evasion rate. Agility",
      "gets a 30% boost.",
    ],
    64 => ["Petite Maid Bandit",
      "Can always equip Plates. Can",
      "always use Cooking, Service,",
      "and Thievery skills. Service",
      "skills deal +15% damage.",
    ],
    66 => ["Item Bandit",
      "Can always use Mercantile and",
      "Thievery skills. +50% to steal",
      "rate and item drop rate.",
    ],
    68 => ["Brawler Bandit",
      "Can always use Thievery skills.",
      "+50% to all stats and execute",
      "weapon-based and racial skills",
      "twice while below 20% HP, but",
      "become uncontrollable.",
    ],
    70 => ["Biohazard Rat",
      "Normal attack has Poison Strike",
      "30% and Bio Strike. Bio attacks",
      "deal +30% damage. Immune to Bio",
      "damage and Poison.",
    ],
    71 => ["Vanishing Wolf",
      "+10% to Evasion rate. Beast",
      "skills deal +15% damage.",
    ],
    72 => ["Phoenix Soul",
      "Can always use Beast and Breath",
      "skills. Once per fight, revive at",
      "50% HP when defeated. Immune to",
      "Fire attacks and Burning.",
    ],
    73 => ["Leech of Leeches",
      "Normal attack has Bind Strike",
      "20%. Immune to Slimed. Special",
      "skills that drain enemies",
      "deal +30% damage and inflict",
      "status effects 30% more often.",
    ],
    74 => ["Hunter Bunny",
      "Can always equip Hats, Bucklers,",
      "Clothes, Gis, Dresses and Skimpy",
      "armor. Can always use Bow skills.",
      "Bow skills deal +30% damage.",
      "Dexterity gets a 30% boost.",
    ],
    75 => ["Drunk Sheep",
      "+25% to Counter rate, +20% to Crit",
      "rate. Targeted by enemies 75% as",
      "often. 10% chance to drink sake",
      "instead of following orders,",
      "gaining Drunken Fist status.",
    ],
    76 => ["Lively Foam",
      "Normal attack has Slimed Strike",
      "50%. +10% to Evasion rate. Skills",
      "using bubbles deal +30% damage",
      "and inflict status effects 30%",
      "more often.",
    ],
    77 => ["Laser Eye and Scissor Legs",
      "Normal attack has Shock/Bind",
      "Strike 15%.",
    ],
    78 => ["Floating Girl",
      "+20% to Evasion rate. +25% to",
      "Magic Evasion rate.",
      "Insect skills that drain HP",
      "have 1/2 SP cost and they",
      "deal +30% damage.",
    ],
    79 => ["Mysterious Being",
      "Normal attack has Slimed Strike",
      "50%. Tentacle skills deal +30%",
      "damage. Nullify attacks dealing",
      "30 damage or less.",
    ],
    80 => ["An Orc Came To Town!",
      "Can always equip Hats, Helms,",
      "Bucklers, Shields, Clothes,",
      "Breastplates, Armor, and Skimpy",
      "armor. Can always equip Clubs and",
      "use Club skills. Gain +20% to all",
      "stats while in towns.",
    ],
    81 => ["Honey Stinger",
      "Skills using stingers have 1/2",
      "SP cost, they deal +30% damage,",
      "and inflict status effects 30%",
      "more often.",
    ],
    82 => ["Dancing Sparrow",
      "Can always use Dancing skills.",
      "Targeted 75% as often by enemies.",
      "Immune to Sleep.",
    ],
    83 => ["Sky Dancer",
      "Can always use Dancing skills.",
      "Dancing skills have 2/3 SP cost",
      "and they inflict status effects",
      "30% more often.",
    ],
    84 => ["Close Sisters",
      "Normal attack and Wing skills",
      "execute 2 times.",
    ],
    85 => ["Slimy Girl",
      "Can always equip Dresses and",
      "Skimpy armor. Can always use",
      "Rapier and Slime skills.  Normal",
      "attack has Slimed Strike 50%.",
      "Immune to Slimed.",
    ],
    86 => ["Slimy Nun",
      "Can always use White Magic and",
      "Slime skills. Normal attack",
      "has Slimed Strike 50%. Immune to",
      "Slimed.",
    ],
    87 => ["Triple Slime",
      "Normal attack executes 3 times.",
      "Slime skills execute 2 times.",
      "Normal attack has Slimed Strike",
      "50%. Immune to Slimed.",
    ],
    88 => ["Pumpkin Power",
      "Black Magic deals +15% damage.",
      "Regenerate 20% max HP/SP and 4%",
      "max MP per turn for 10 turns when",
      "falling below 20% HP.",
    ],
    89 => ["Predatory Tentacle",
      "Can always use Slime and Tentacle",
      "skills. Normal attack has Slimed",
      "Strike 30% and Bind/Digestion",
      "Strike 15%. Dissolving skills",
      "deal +30% damage and inflict",
      "status effects 30% more often.",
    ],
    90 => ["Cave-Dwelling Tentacle Insect",
      "Can always use Tentacle skills.",
      "Immune to Blind. Gain +20% to all",
      "stats while in caves.",
    ],
    91 => ["Short-Lived Flame",
      "Fire attacks deal +30% damage.",
      "If above 30% HP, endure a lethal",
      "blow with 1 HP remaining.",
    ],
    92 => ["Trap Meat Flower",
      "Normal attack has Bind/Digestion",
      "strike 15%. 50% chance to eat",
      "a bound and partially digested",
      "foe at end of turn.",
    ],
    93 => ["Beast Apoptosis",
      "Can always use Beast skills.",
      "Beast skills deal +30% damage.",
    ],
    94 => ["Multi-Claw Restraint Device",
      "Normal attack executes 2 times.",
      "Normal attack has Bind Strike 30%.",
    ],
    95 => ["Dark Elf Swordsman",
      "Can always equip Swords and Knight",
      "Swords. Can always use Sword",
      "skills. Regenerate 20% max SP per",
      "turn while under 75% HP",
    ],
    96 => ["Dark Elf Magician",
      "Can always use Black Magic and",
      "Tentacle skills. Ice attacks",
      "deal +30% damage and Tentacle",
      "skills deal +15% damage.",
    ],
    97 => ["Forest Fairy",
      "Nature skills deal +30% damage.",
      "Targeted 75% as often by enemies.",
    ],
    98 => ["Bubble Bubble Novice",
      "Normal attack has Slimed Strike",
      "50%. Skills using bubbles have",
      "3/4 SP cost, they deal +30%",
      "damage, and inflict status",
      "effects 30% more often.",
    ],
    99 => ["Electric Catfish",
      "Can always use Nature skills.",
      "Earth and Electric attacks deal",
      "+30% damage. Nature skills use",
      "Willpower instead of Magic.",
    ],
    100 => ["Devilish Scent of Rafflesia",
      "Normal attack has Trance Strike",
      "15%. Skills using pollen inflict",
      "status effects 30% more often.",
      "33% chance to use Aroma of",
      "Intoxication at start of battle.",
    ],
    101 => ["Field Centaur",
      "Can always equip Spears and Heavy",
      "Spears. Can always use Spear",
      "skills. Spear skills deal +15%",
      "damage.",
    ],
    102 => ["Novice Ninja",
      "Can always use Ninjutsu skills.",
      "Ninjutsu skills deal +30% damage.",
      "+10% to Crit rate.",
    ],
    103 => ["Novice Taoist",
      "Can always use Taoism skills.",
      "Taoism skills deal +30% damage.",
    ],
    104 => ["Time Spinner",
      "Can always use Time Magic.",
      "Time Magic deals +15% damage.",
      "Skills using spider silk have",
      "1/2 SP cost.",
    ],
    105 => ["Mimic Maid",
      "Dissolving skills deal +30%",
      "damage and inflict status effects",
      "30% more often. Surprise Box stuns",
      "30% more often.",
    ],
    106 => ["Moonlight Kitsune",
      "Taoism and Beast skills deal +30%",
      "damage. Regenerate 8% max MP per",
      "turn for 10 turns when falling",
      "below 50% HP.",
    ],
    107 => ["Dreaming Sea Cucumber",
      "Normal attack has Sleep/Bind",
      "Strike 15%. Immune to Sleep.",
      "Special skills that drain enemies",
      "deal +30% damage and inflict",
      "status effects 30% more often.",
    ],
    108 => ["Shell Bride",
      "Can always use Cooking and Service",
      "skills. Service skills have 2/3 SP",
      "cost. Take 25% damage instead of",
      "50% while Guarding.",
    ],
    109 => ["Bubble Bubble Master",
      "Normal attack has Slimed Strike",
      "50% and Trance Strike 15%. Skills",
      "using bubbles have 2/3 SP cost,",
      "they deal +50% damage, and",
      "inflict status effects 50% more",
      "often.",
    ],
    110 => ["Carnivorous Slime",
      "Normal attack has Digestion",
      "Strike 15%. Slime skills deal",
      "+30% damage.",
    ],
    111 => ["Miracle Watermelon",
      "Normal attack has Sleep Strike",
      "15%. Can always use Oracle",
      "skills. Healing skills that use",
      "honey are 50% more effective.",
    ],
    112 => ["Melting Pitcher Plant",
      "Can always use Slime skills.",
      "Dissoloving skills deal",
      "+30% damage and inflict status",
      "effects 30% more often.",
    ],
    113 => ["Traditional Lamia",
      "Can always use Snake skills.",
      "Snake skills deal +15% damage.",
      "Snake skills and Flail skils have",
      "2/3 SP cost.",
    ],
    114 => ["Seaweed Soul",
      "Can always use Dancing and Ocean",
      "skills. Dancing skills inflict",
      "status effects 30% more",
      "often. Normal attack inflicts",
      "Slimed 30% of the time.",
    ],
    115 => ["Stinging Jellyfish",
      "Normal attack has",
      "Poison/Paralysis/Bind Strike 15%.",
      "+10% to Evasion rate. Skills",
      "using stinging tentacles deal",
      "+30% damage and inflict status",
      "effects 30% more often.",
    ],
    116 => ["Stinging Sea Anenome",
      "Normal attack has",
      "Poison/Paralysis/Bind Strike 15%.",
      "Tentacle skills deal +30% damage.",
      "Skills using stinging tentacles",
      "deal +30% damage and inflict",
      "status effects +30% more often.",
    ],
    117 => ["Immovable Angler",
      "Immune to Blind, Sleep, Stun,",
      "Horny, Trance, Seduction and",
      "Incontinence. Normal attack",
      "has Bind Strike 25%.",
    ],
    118 => ["Versatile Mermaid",
      "White Magic, Ocean, and Singing",
      "skills deal +15% damage and heal",
      "15% more HP.",
    ],
    119 => ["Numbing Book",
      "Normal attack has Paralysis/Shock",
      "Strike 15%. Can always use",
      "Grimoire skills. 50% chance to not",
      "consume a page when using a",
      "Grimoire skill. +20% Evasion rate",
      "and +25% Magic Evasion rate.",
    ],
    120 => ["Multi-Arm Bodyguard",
      "Normal attack executes 2 times.",
      "Can always use Unarmed skills.",
      "50% chance to not consume a page",
      "when using a Grimoire skill.",
      "Attack gets a 30% boost.",
    ],
    121 => ["Tentacle Dictionary",
      "Can always use Grimoire, Demon",
      "Arts, and Tentacle skills.",
      "Grimoire skills deal +30% damage.",
      "50% chance to not consume a page",
      "when using a Grimoire skill.",
    ],
    122 => ["Holy Snake",
      "Normal attack has Stun Strike",
      "15%. White Magic deals +30%",
      "damage and heals 30% more HP.",
    ],
    123 => ["Holy Succubus",
      "Normal attack has Horny Strike",
      "30% and Trance Strike 15%. White",
      "Magic deals +30% damage and heals",
      "30% more HP.",
    ],
    124 => ["Licking Beast",
      "Can always use Demon Arts skills.",
      "Skills using a tongue have 1/2",
      "SP cost and they deal +30%",
      "damage.",
    ],
    125 => ["Brutal Wild Animal",
      "+10% to Crit rate. Beast skills",
      "deal +30% damage.",
    ],
    126 => ["Life-Draining Machine",
      "Artificial skills that drain",
      "enemies have 1/2 SP cost and",
      "they deal +30% damage.",
    ],
    127 => ["Weakening Insect",
      "Armor Break, Mind Impact, and",
      "similar skills have 1/2 SP cost",
      "and they deal +30% damage.",
    ],
    128 => ["Gunner Cancer",
      "Can always use Gun and Artificial",
      "skills. Gun and Artificial skills",
      "deal +15% damage. 25% chance to",
      "use Full Gatling at start of",
      "battle.",
    ],
    129 => ["Machine Commander",
      "Can always use Makina, Gun, Holy,",
      "and Dark skills. Makina and Gun",
      "skills deal +30% damage. Can use",
      "some Makina skills without",
      "appropriate key items.",
    ],
    130 => ["Thirsty Ghost",
      "+25% to Evasion rate.",
      "Corpse skills deal +30% damage.",
    ],
    131 => ["Growing-Hair Doll",
      "Can always use Demon Arts skills.",
      "Skills using hair have 1/2 SP",
      "cost, they deal +30% damage, and",
      "inflict status effects 30% more",
      "often.",
    ],
    132 => ["Zombie Gale Swordsman",
      "Can always equip Swords and Knight",
      "Swords. Can always use Sword",
      "skills. Sword and Corpse skills",
      "deal +15% damage. 50% chance to",
      "use Gale Thrust at start of",
      "battle.",
    ],
    133 => ["Zombie Group",
      "Normal attack executes 4 times",
      "and attacks random foes. Corpse",
      "skills execute 2 times.",
    ],
    134 => ["I'm a Genius!",
      "Can always use Summoning, Makina,",
      "and Medicine skills. Summoning",
      "skills deal +30% damage.",
    ],
    135 => ["Ultimate Zombie",
      "Counter attacks deal 200% damage.",
      "Unarmed and Corpse skills deal",
      "+30% damage. Unarmed skills use",
      "Attack instead of Agility.",
    ],
    136 => ["Forest Guardian",
      "Can always use Bow skills.",
      "Bow skills have 2/3 SP cost",
      "and they deal +30% damage.",
    ],
    137 => ["Forest Craftsmen",
      "Normal attack and Club skills",
      "execute 2 times. Targeted by",
      "enemies 75% as often.",
    ],
    138 => ["Forest Fairies",
      "Normal attack and Oracle skills",
      "execute 2 times. Targeted by",
      "enemies 75% as often.",
    ],
    139 => ["Forest Fairy Group",
      "Normal attack executes 4 times",
      "and attacks random foes. Nature",
      "skills execute 2 times.",
    ],
    140 => ["Tarantula Housemaid",
      "Can always use Service skills.",
      "Skills using spider silk have 1/2",
      "SP cost, they deal +30% damage,",
      "and inflict status effects 30%",
      "more often.",
    ],
    141 => ["Tough Cow's Axe",
      "Can always equip Axes and use Axe",
      "skills. Axe skills deal +30%",
      "damage.",
    ],
    142 => ["Strong Arm",
      "Can always use Unarmed skills.",
      "Unarmed skills deal +15% damage.",
      "Unarmed skills use Attack instead",
      "of Agility.",
    ],
    143 => ["Dexterous Poor Succubus",
      "Can always use Thievery,",
      "Mercantile, Oracle, Dancing,",
      "Sing, Talk, Cooking,",
      "Medicine, and Service skills.",
      "May use certain Oracle skills",
      "instead of following orders.",
    ],
    144 => ["Sables Phase",
      "Can always use Demon Arts, Insect",
      "and Pirating skills. Skills using",
      "a tongue have 1/2 SP cost and",
      "they deal +30% damage.",
    ],
    145 => ["Armored Centipede",
      "Normal attack has Paralysis/Bind",
      "Strike 15%. Take 25% damage",
      "instead of 50% when guarding.",
      "Insect skills deal +15% damage.",
    ],
    146 => ["Armored Scorpion",
      "Normal attack has Death Strike",
      "15%. Take 25% damage instead of",
      "50% when guarding. Skills using",
      "stingers deal +30% damage and",
      "inflicts status effects 30%",
      "more often.",
    ],
    147 => ["Prickly Cactus",
      "Skill using needles  have 1/2 SP",
      "cost, deal +30% damage, and",
      "inflict status effects 30% more",
      "often. +75% to Counter rate.",
    ],
    148 => ["Fighting Ostrich",
      "Can always use Unarmed skills.",
      "Unarmed skills deal +30% damage",
      "and use Agility in place of",
      "Attack.",
    ],
    149 => ["Lucky Lamp",
      "Can always use Summoning and",
      "Oracle skills. Summoning skills",
      "have 2/3 MP cost Lightning attacks",
      "deal +30% damage.",
    ],
    150 => ["Royal Mummy",
      "Can always equip Rapiers and",
      "use Rapier skills. Rapier skills",
      "and Black Magic deal +15% damage.",
      "Skills using bandages deal +30%",
      "damage and inflict status effects",
      "30% more often.",
    ],
    151 => ["Venomous Snake",
      "Normal attack has Death Strike",
      "15%. Can always use Beast skills.",
      "Skills using fangs deal +30%",
      "damage and inflict status effects",
      "30% more often.",
    ],
    152 => ["Talkative Snakes",
      "Normal attack executes 4 times",
      "and attacks random foes. Can",
      "always use Talk skills. Snake",
      "skills execute 2 times.",
    ],
    154 => ["Alligator Fangs",
      "Normal attack has Bind Strike",
      "15%. Skills using fangs deal +30%",
      "damage and inflict status effects",
      "30% more often. 33% chance to eat",
      "a bound and partially digested foe",
      "at end of turn.",
    ],
    155 => ["Everyone's Idol",
      "Can always use Dancing and Singing",
      "skills. Dancing and Singing skills",
      "inflict status effects 30% more",
      "often. Targeted 75% as often by",
      "enemies.",
    ],
    156 => ["Embarrassed Swordsman",
      "Can always equip Swords and Knight",
      "Swords. Can always use Sword",
      "skills. Sword skills have 2/3",
      "SP cost and deal +15% damage.",
    ],
    157 => ["Earth Spider Trap",
      "Normal attack has Slimed Strike",
      "30% and Bind Strike 15%. Skills",
      "that use spider silk have 1/2 SP",
      "cost, deal +30% damage, and",
      "inflict status effects 30% more",
      "often.",
    ],
    158 => ["Drain Suck",
      "Tentacle skills that drain enemies",
      "have 1/2 SP cost, deal +30% ",
      "damage and inflict status effects",
      "30% more often.",
    ],
    159 => ["Nightmare Maiden",
      "Can always use Demon Arts skills.",
      "Normal attack has Bind Strike",
      "15%. Nightmare's Embrace deals",
      "+50% damage and inflicts status",
      "effects 50% more often. 33% chance",
      "to use Nightmare's Embrace at start",
      "of battle.",
    ],
    160 => ["Ice Mage",
      "Tentacle skills deal +15% damage.",
      "Ice attacks deal +30% damage.",
    ],
    161 => ["Biting Cook",
      "Can always use Cooking and Beast",
      "skills. Cooking skills deal +30%",
      "damage.",
    ],
    162 => ["Honey Tentacles",
      "Can always use Slime and Tentacle",
      "skills. Slime and Tentacle skills",
      "execute 2 times.",
    ],
    163 => ["Mad Mage",
      "Summoning, Magic Science, and",
      "Tentacle skills deal +15% damage.",
    ],
    164 => ["Oni's Club",
      "Can always equip Clubs and use",
      "Club skills. Club skills deal",
      "+15% damage.",
    ],
    165 => ["Masturbation Assistant",
      "Can always use Slime skills.",
      "Sexcraft skills using the hand",
      "deal +50% damage and inflict",
      "status effects 30% more often.",
    ],
    166 => ["I'm A Nurse",
      "Can always use Medicine skills.",
      "Medicine skills deal +30% damage",
      "and heal 30% more HP. Targeted by",
      "enemies 75% as often.",
    ],
    167 => ["Mad Alchemist",
      "Summoning, Alchemy, and Tentacle",
      "skills deal +15% damage.",
    ],
    168 => ["100 Eyes",
      "Demon Arts skills that use eyes",
      "deal +30% damage and inflict",
      "status effects 30% more often.",
      "35% chance to use a random Demon",
      "Arts skill using eyes at start of",
      "battle.",
    ],
    169 => ["Lizard Thief",
      "Can always use Dagger and Thievery",
      "skills. +50% gold drop rate.",
    ],
    170 => ["Lizard Bandit",
      "Can always use Sword and Thievery",
      "skills. Sword skills deal +15%",
      "damage. Skills have 1/2 SP cost",
      "while below 50% HP.",
    ],
    171 => ["Lizard Bandit Queen",
      "Can always use Sword and Thievery",
      "skills. Sword skills deal +15%",
      "damage. Sword skills execute 2",
      "times while below 20% HP.",
    ],
    172 => ["Desert Mirage",
      "Can always use Dancing and",
      "Sexcraft skills. +10% to Evasion",
      "rate, +15% to Magic Evasion rate.",
      "+20% to all stats while in the",
      "desert.",
    ],
    173 => ["Desert Ant Lion",
      "Normal attack has Bind Strike",
      "30%. Insect skills deal +15%",
      "damage. +20% to all stats while",
      "in the desert.",
    ],
    174 => ["Desert Sandworm",
      "Skills using a giant body have",
      "1/2 SP cost, deal +30% damage,",
      "and inflict status effects 30%",
      "more often. +20% to all stats",
      "while in the desert.",
    ],
    175 => ["Desert Tamer",
      "Can always use Whip and Talk",
      "skills. Whip skills deal +30%",
      "damage. +20% to all stats while",
      "in the desert.",
    ],
    176 => ["Vitae Aqua",
      "Can always use Slime and",
      "Artificial skills, Slime skills",
      "and Water attacks deal +30% ",
      "damage.",
    ],
    177 => ["Big Mouth",
      "Can always use Unarmed and",
      "Beast skills. Normal attack",
      "has Digestion Strike 15%. Skills",
      "using fangs deal +15% damage.",
    ],
    178 => ["Makina Gauge",
      "Normal attack has Bind Strike",
      "15%. Makina skills deal +30%",
      "damage.",
    ],
    179 => ["Laughing Harlequin",
      "+5% to Evasion rate, +5% to Crit",
      "rate, +10% to Magic Evasion rate.",
      "Can always use Singing skills.",
      "Singing skills inflict status",
      "effects 15% more often.",
    ],
    180 => ["Magic Shadow",
      "Can always equip Scythes and",
      "use Black Magic. +15% to Evasion",
      "rate and +20% to Magic Evasion",
      "rate. Scythe skills and Black",
      "Magic deal +30% damage.",
    ],
    181 => ["Talkative Art",
      "Can always use Talk and Demon Arts",
      "skills. Talk skills inflict status",
      "effects 30% more often.",
    ],
    182 => ["Gold-Creating Body",
      "Can always use Alchemy skills.",
      "Alchemy skills have 1/2 SP cost.",
    ],
    183 => ["Autonomous Maiden",
      "Can always use Demon Arts and",
      "Tentacle skills. Normal attack",
      "has Bind Strike 15%.",
      "Nightmare's Embrace deals +30%",
      "damage and inflicts status",
      "effects 30% more often.",
    ],
    184 => ["Junk Mind",
      "Normal attack executes 4 times",
      "and attacks random foes.",
      "Artificial skills execute",
      "2 times.",
    ],
    185 => ["Robo Maid Experiment",
      "Can always use Service skills.",
      "Service skills deal +30% damage.",
    ],
    525 => ["Club Girl",
      "Can always equip Clubs and Staves.",
      "Can always use Club skills and",
      "White Magic. Normal attacks with",
      "a Club and Club skills deal +30%",
      "damage.  White Magic deals +30%",
      "damage and restores 30% more HP.",
    ],
    529 => ["Tomboy Princess Swordsman",
      "Can always equip Swords and Knight",
      "Swords. Can always use Sword and",
      "Ruling skills. Sword and Ruling",
      "skills deal +30% damage and",
      "restore 30% more HP.",
    ],
    531 => ["Mecha Pope",
      "Can always equip Guns. Can always",
      "use Gun, Holy, and Makina skills.",
      "Can use special Makina skills",
      "without appropriate key items.",
    ],
    533 => ["Whip Queen",
      "Can always equip Whips. Can",
      "always use Whip and Ruling skills.",
      "Whip and Ruling skills deal +30%",
      "damage.",
    ],
    540 => ["Unfortunate Lamia",
      "Targeted 25% as often by enemies.",
      "Can always use Talk skills.",
      "Talk skills inflict status effects",
      "50% more often.",
    ],
    541 => ["Unfortunate Harpy",
      "Targeted 25% as often by enemies.",
      "+30% to Evasion rate and Magic",
      "Evasion rate.",
    ],
    542 => ["Unfortunate Mermaid",
      "Targeted 25% as often by enemies.",
      "Mercantile skills have 1/2 gold",
      "cost. 3% chance to die instead",
      "of following orders.",
    ],
    544 => ["Disciple of Pleasure",
      "Normal attack has Pleasure Strike",
      "and Horny/Trance Strike 15%. Take",
      "50% damage from Pleasure attacks.",
    ],
    545 => ["Civilian",
      "Targeted 50% as often by enemies.",
      "+20% to all stats while in towns.",
      "+50% to Evasion rate while below",
      "20% HP.",
    ],
    546 => ["Resentment of the Streets",
      "Targeted 50% as often by enemies.",
      "Gain gold equal to damage taken.",
    ],
    547 => ["Dahlia of Criminal Underworld",
      "Can always equip Guns. Can always",
      "use Gun and Mercantile skills.",
      "Gun skills deal +30% damage.",
    ],
    548 => ["Lucky Bunny",
      "Targeted 25% as often by enemies.",
      "+50% to gold drop and recruit",
      "rate.",
    ],
    549 => ["Expert Thief",
      "Can always use Thievery skills.",
      "+50% to item drop and steal rate.",
    ],
    550 => ["Chi-Focusing Technique",
      "Can always use Unarmed skills.",
      "+50% to Crit and Evasion rate",
      "while below 20% HP.",
    ],
    551 => ["Legendary Maid's Apprentice",
      "Can always use Service skills.",
      "Service skills deal +30% damage.",
      "Gain 200% Job XP when winning a",
      "battle while below 20% HP.",
    ],
    552 => ["Gentle Elf",
      "Targeted 50% as often by enemies.",
      "Can always use Bow skills.",
      "Bow skills deal +30% damage.",
    ],
    553 => ["Apprentice Scholar",
      "Targeted 50% as often by enemies.",
      "Can always use Magic Science",
      "skills. Magic Science skills deal",
      "+15% damage.",
    ],
    554 => ["Lewd Nurse",
      "Can always use Medicine and",
      "Sexcraft skills. Medicine and",
      "Sexcraft skills deal +15% damage",
      "and heal 15% more HP.",
    ],
    555 => ["Gentle Soul",
      "Targeted 50% as often by enemies.",
      "Gain MP equal to 10% of damage",
      "taken.",
    ],
    556 => ["Virtuous Priestess",
      "Can always use White Magic.",
      "White Magic has 2/3 MP cost.",
    ],
    557 => ["Justice Kaiser",
      "Targeted 200% as often by enemies.",
      "50% chance to use Transform at",
      "start of battle.",
    ],
    558 => ["Roadside Fortune Teller",
      "Targeted 50% as often by enemies.",
      "Uses Tarot of Fate at end of turn.",
    ],
    559 => ["Master Assassin",
      "Targeted 50% as often by enemies.",
      "Normal attack has Death Strike",
      "20%. Can always use Ninjutsu",
      "skills.",
    ],
    560 => ["Enchanting Dancer",
      "Can always use Dancing skills.",
      "50% chance to use Sexy Dance at",
      "start of battle.",
    ],
    561 => ["Pettanko Witch",
      "Can always use Black Magic.",
      "Regenerate 8% of max MP per turn",
      "while below 20% HP.",
    ],
    562 => ["Mighty Blacksmith",
      "Can always use Club skills.",
      "Regenerate 20% of max SP per turn",
      "while below 20% HP. Normal attack",
      "attempts to steal materials.",
    ],
    563 => ["Temple Soldier",
      "Take 50% damage from physical",
      "and magical attacks while below",
      "20% HP.  Gain +50% Defense and",
      "Will while below 20% HP.",
    ],
    564 => ["Lightning of San Ilia",
      "Can always equip Spears and Heavy",
      "Spears. Can always use Spear skills",
      "Spear skills execute 2 times while",
      "below 20% HP.",
    ],
    565 => ["Hammer of Sabasa",
      "Can always equip Clubs and use",
      "Club skills. 25% chance to use",
      "Rock Drop at start of battle.",
    ],
    566 => ["Red Sleeveless",
      "+30% to Evasion rate and +20% to",
      "Hit rate. 20% chance to play",
      "around instead of following",
      "orders.",
    ],
    567 => ["Gentleman Pervert",
      "Normal attack attempts to steal",
      "panties. 50% chance to attempt to",
      "steal panties at start of battle.",
      "25% chance to attempt to steal",
      "panties at end of turn.",
    ],
  }
end

 
 